filename,emotion,timeshift
s07t27v1_0ms.c3d,1,1
s07t27v1_500ms.c3d,1,2
s07t27v1_1000ms.c3d,1,3
s07t27v1_2000ms.c3d,1,4
s03t03v2_0ms.c3d,1,1
s03t03v2_500ms.c3d,1,2
s03t03v2_1000ms.c3d,1,3
s03t03v2_2000ms.c3d,1,4
s07t30v2_0ms.c3d,1,1
s07t30v2_500ms.c3d,1,2
s07t30v2_1000ms.c3d,1,3
s07t30v2_2000ms.c3d,1,4
s07t24v1_0ms.c3d,1,1
s07t24v1_500ms.c3d,1,2
s07t24v1_1000ms.c3d,1,3
s07t24v1_2000ms.c3d,1,4
s07t25v2_0ms.c3d,1,1
s07t25v2_500ms.c3d,1,2
s07t25v2_1000ms.c3d,1,3
s07t25v2_2000ms.c3d,1,4
s08t20v1_0ms.c3d,1,1
s08t20v1_500ms.c3d,1,2
s08t20v1_1000ms.c3d,1,3
s08t20v1_2000ms.c3d,1,4
s10t19v1_0ms.c3d,1,1
s10t19v1_500ms.c3d,1,2
s10t19v1_1000ms.c3d,1,3
s10t19v1_2000ms.c3d,1,4
s03t05v1_0ms.c3d,1,1
s03t05v1_500ms.c3d,1,2
s03t05v1_1000ms.c3d,1,3
s03t05v1_2000ms.c3d,1,4
s10t17v3_0ms.c3d,1,1
s10t17v3_500ms.c3d,1,2
s10t17v3_1000ms.c3d,1,3
s10t17v3_2000ms.c3d,1,4
s05t19v2_0ms.c3d,1,1
s05t19v2_500ms.c3d,1,2
s05t19v2_1000ms.c3d,1,3
s05t19v2_2000ms.c3d,1,4
s08t17v2_0ms.c3d,1,1
s08t17v2_500ms.c3d,1,2
s08t17v2_1000ms.c3d,1,3
s08t17v2_2000ms.c3d,1,4
s10t20v2_0ms.c3d,1,1
s10t20v2_500ms.c3d,1,2
s10t20v2_1000ms.c3d,1,3
s10t20v2_2000ms.c3d,1,4
s07t26v1_0ms.c3d,1,1
s07t26v1_500ms.c3d,1,2
s07t26v1_1000ms.c3d,1,3
s07t26v1_2000ms.c3d,1,4
s03t22v2_0ms.c3d,1,1
s03t22v2_500ms.c3d,1,2
s03t22v2_1000ms.c3d,1,3
s03t22v2_2000ms.c3d,1,4
s03t28v1_0ms.c3d,1,1
s03t28v1_500ms.c3d,1,2
s03t28v1_1000ms.c3d,1,3
s03t28v1_2000ms.c3d,1,4
s03t19v2_0ms.c3d,1,1
s03t19v2_500ms.c3d,1,2
s03t19v2_1000ms.c3d,1,3
s03t19v2_2000ms.c3d,1,4
s03t16v2_0ms.c3d,1,1
s03t16v2_500ms.c3d,1,2
s03t16v2_1000ms.c3d,1,3
s03t16v2_2000ms.c3d,1,4
s08t08v2_0ms.c3d,2,1
s08t08v2_500ms.c3d,2,2
s08t08v2_1000ms.c3d,2,3
s08t08v2_2000ms.c3d,2,4
s05t07v5_0ms.c3d,2,1
s05t07v5_500ms.c3d,2,2
s05t07v5_1000ms.c3d,2,3
s05t07v5_2000ms.c3d,2,4
s05t08v5_0ms.c3d,2,1
s05t08v5_500ms.c3d,2,2
s05t08v5_1000ms.c3d,2,3
s05t08v5_2000ms.c3d,2,4
s03t20v2_0ms.c3d,2,1
s03t20v2_500ms.c3d,2,2
s03t20v2_1000ms.c3d,2,3
s03t20v2_2000ms.c3d,2,4
s08t07v2_0ms.c3d,2,1
s08t07v2_500ms.c3d,2,2
s08t07v2_1000ms.c3d,2,3
s08t07v2_2000ms.c3d,2,4
s08t06v1_0ms.c3d,2,1
s08t06v1_500ms.c3d,2,2
s08t06v1_1000ms.c3d,2,3
s08t06v1_2000ms.c3d,2,4
s03t10v2_0ms.c3d,2,1
s03t10v2_500ms.c3d,2,2
s03t10v2_1000ms.c3d,2,3
s03t10v2_2000ms.c3d,2,4
s11t04v2_0ms.c3d,2,1
s11t04v2_500ms.c3d,2,2
s11t04v2_1000ms.c3d,2,3
s11t04v2_2000ms.c3d,2,4
s08t05v1_0ms.c3d,2,1
s08t05v1_500ms.c3d,2,2
s08t05v1_1000ms.c3d,2,3
s08t05v1_2000ms.c3d,2,4
s07t09v1_0ms.c3d,2,1
s07t09v1_500ms.c3d,2,2
s07t09v1_1000ms.c3d,2,3
s07t09v1_2000ms.c3d,2,4
s03t24v3_0ms.c3d,2,1
s03t24v3_500ms.c3d,2,2
s03t24v3_1000ms.c3d,2,3
s03t24v3_2000ms.c3d,2,4
s10t06v1_0ms.c3d,2,1
s10t06v1_500ms.c3d,2,2
s10t06v1_1000ms.c3d,2,3
s10t06v1_2000ms.c3d,2,4
s10t08v1_0ms.c3d,2,1
s10t08v1_500ms.c3d,2,2
s10t08v1_1000ms.c3d,2,3
s10t08v1_2000ms.c3d,2,4
s07t03v1_0ms.c3d,2,1
s07t03v1_500ms.c3d,2,2
s07t03v1_1000ms.c3d,2,3
s07t03v1_2000ms.c3d,2,4
s07t32v1_0ms.c3d,2,1
s07t32v1_500ms.c3d,2,2
s07t32v1_1000ms.c3d,2,3
s07t32v1_2000ms.c3d,2,4
s05t05v2_0ms.c3d,2,1
s05t05v2_500ms.c3d,2,2
s05t05v2_1000ms.c3d,2,3
s05t05v2_2000ms.c3d,2,4
s10t04v2_0ms.c3d,2,1
s10t04v2_500ms.c3d,2,2
s10t04v2_1000ms.c3d,2,3
s10t04v2_2000ms.c3d,2,4
s05t15v2_0ms.c3d,3,1
s05t15v2_500ms.c3d,3,2
s05t15v2_1000ms.c3d,3,3
s05t15v2_2000ms.c3d,3,4
s10t12v2_0ms.c3d,3,1
s10t12v2_500ms.c3d,3,2
s10t12v2_1000ms.c3d,3,3
s10t12v2_2000ms.c3d,3,4
s05t11v2_0ms.c3d,3,1
s05t11v2_500ms.c3d,3,2
s05t11v2_1000ms.c3d,3,3
s05t11v2_2000ms.c3d,3,4
s07t15v2_0ms.c3d,3,1
s07t15v2_500ms.c3d,3,2
s07t15v2_1000ms.c3d,3,3
s07t15v2_2000ms.c3d,3,4
s07t21v1_0ms.c3d,3,1
s07t21v1_500ms.c3d,3,2
s07t21v1_1000ms.c3d,3,3
s07t21v1_2000ms.c3d,3,4
s07t14v1_0ms.c3d,3,1
s07t14v1_500ms.c3d,3,2
s07t14v1_1000ms.c3d,3,3
s07t14v1_2000ms.c3d,3,4
s07t20v2_0ms.c3d,3,1
s07t20v2_500ms.c3d,3,2
s07t20v2_1000ms.c3d,3,3
s07t20v2_2000ms.c3d,3,4
s03t26v1_0ms.c3d,3,1
s03t26v1_500ms.c3d,3,2
s03t26v1_1000ms.c3d,3,3
s03t26v1_2000ms.c3d,3,4
s08t12v1_0ms.c3d,3,1
s08t12v1_500ms.c3d,3,2
s08t12v1_1000ms.c3d,3,3
s08t12v1_2000ms.c3d,3,4
s05t12v2_0ms.c3d,3,1
s05t12v2_500ms.c3d,3,2
s05t12v2_1000ms.c3d,3,3
s05t12v2_2000ms.c3d,3,4
s11t07v1_0ms.c3d,3,1
s11t07v1_500ms.c3d,3,2
s11t07v1_1000ms.c3d,3,3
s11t07v1_2000ms.c3d,3,4
s10t10v2_0ms.c3d,3,1
s10t10v2_500ms.c3d,3,2
s10t10v2_1000ms.c3d,3,3
s10t10v2_2000ms.c3d,3,4
s05t17v2_0ms.c3d,3,1
s05t17v2_500ms.c3d,3,2
s05t17v2_1000ms.c3d,3,3
s05t17v2_2000ms.c3d,3,4
s03t11v1_0ms.c3d,3,1
s03t11v1_500ms.c3d,3,2
s03t11v1_1000ms.c3d,3,3
s03t11v1_2000ms.c3d,3,4
s11t09v1_0ms.c3d,3,1
s11t09v1_500ms.c3d,3,2
s11t09v1_1000ms.c3d,3,3
s11t09v1_2000ms.c3d,3,4
s08t13v1_0ms.c3d,3,1
s08t13v1_500ms.c3d,3,2
s08t13v1_1000ms.c3d,3,3
s08t13v1_2000ms.c3d,3,4
s08t15v2_0ms.c3d,3,1
s08t15v2_500ms.c3d,3,2
s08t15v2_1000ms.c3d,3,3
s08t15v2_2000ms.c3d,3,4
s11t20v2_0ms.c3d,4,1
s11t20v2_500ms.c3d,4,2
s11t20v2_1000ms.c3d,4,3
s11t20v2_2000ms.c3d,4,4
s03t32v1_0ms.c3d,4,1
s03t32v1_500ms.c3d,4,2
s03t32v1_1000ms.c3d,4,3
s03t32v1_2000ms.c3d,4,4
s10t25v2_0ms.c3d,4,1
s10t25v2_500ms.c3d,4,2
s10t25v2_1000ms.c3d,4,3
s10t25v2_2000ms.c3d,4,4
s07t34v2_0ms.c3d,4,1
s07t34v2_500ms.c3d,4,2
s07t34v2_1000ms.c3d,4,3
s07t34v2_2000ms.c3d,4,4
s07t31v2_0ms.c3d,4,1
s07t31v2_500ms.c3d,4,2
s07t31v2_1000ms.c3d,4,3
s07t31v2_2000ms.c3d,4,4
s07t35v1_0ms.c3d,4,1
s07t35v1_500ms.c3d,4,2
s07t35v1_1000ms.c3d,4,3
s07t35v1_2000ms.c3d,4,4
s08t23v1_0ms.c3d,4,1
s08t23v1_500ms.c3d,4,2
s08t23v1_1000ms.c3d,4,3
s08t23v1_2000ms.c3d,4,4
s03t17v2_0ms.c3d,4,1
s03t17v2_500ms.c3d,4,2
s03t17v2_1000ms.c3d,4,3
s03t17v2_2000ms.c3d,4,4
s07t32v2_0ms.c3d,4,1
s07t32v2_500ms.c3d,4,2
s07t32v2_1000ms.c3d,4,3
s07t32v2_2000ms.c3d,4,4
s11t17v2_0ms.c3d,4,1
s11t17v2_500ms.c3d,4,2
s11t17v2_1000ms.c3d,4,3
s11t17v2_2000ms.c3d,4,4
s08t27v2_0ms.c3d,4,1
s08t27v2_500ms.c3d,4,2
s08t27v2_1000ms.c3d,4,3
s08t27v2_2000ms.c3d,4,4
s11t18v1_0ms.c3d,4,1
s11t18v1_500ms.c3d,4,2
s11t18v1_1000ms.c3d,4,3
s11t18v1_2000ms.c3d,4,4
s10t22v1_0ms.c3d,4,1
s10t22v1_500ms.c3d,4,2
s10t22v1_1000ms.c3d,4,3
s10t22v1_2000ms.c3d,4,4
s10t21v2_0ms.c3d,4,1
s10t21v2_500ms.c3d,4,2
s10t21v2_1000ms.c3d,4,3
s10t21v2_2000ms.c3d,4,4
s08t25v1_0ms.c3d,4,1
s08t25v1_500ms.c3d,4,2
s08t25v1_1000ms.c3d,4,3
s08t25v1_2000ms.c3d,4,4
s11t19v2_0ms.c3d,4,1
s11t19v2_500ms.c3d,4,2
s11t19v2_1000ms.c3d,4,3
s11t19v2_2000ms.c3d,4,4
s08t16v1_0ms.c3d,4,1
s08t16v1_500ms.c3d,4,2
s08t16v1_1000ms.c3d,4,3
s08t16v1_2000ms.c3d,4,4
