condition,Test_Statistic,p_Value
t0_Af,0.975415496463538,0.46197294769925
t0_An,0.981014500813233,0.674195590119467
t0_Ha,0.98387252031807,0.787227695353735
t0_Sa,0.972419683347915,0.367367503454698
t500_Af,0.966032568989655,0.217783002991098
t500_An,0.986724344998797,0.886610266317789
t500_Ha,0.979341962642618,0.607509386809362
t500_Sa,0.95374310909186,0.0758862594568657
t1000_Af,0.985154862680025,0.834523628387025
t1000_An,0.974053173080397,0.416984355331725
t1000_Ha,0.974536448744674,0.432575360695169
t1000_Sa,0.968939889778337,0.27748746657644
t2000_Af,0.976159516175695,0.487865396360169
t2000_An,0.984803860042623,0.821927519095719
t2000_Ha,0.966338397977119,0.223459962622059
t2000_Sa,0.980975081970351,0.672612449305361
