TimeShift_1,TimeShift_2,Difference,StdErr,pValue,Lower,Upper
t0,t1000,-0.0274610563840961,0.0715784753991446,1,-0.242793006865572,0.18787089409738
t0,t2000,-0.0704525763868434,0.0515224312547506,1,-0.225449250369729,0.0845440975960422
t0,t500,0.00240928140742985,0.02988254320393,1,-0.0874873848398944,0.0923059476547541
t1000,t0,0.0274610563840961,0.0715784753991446,1,-0.18787089409738,0.242793006865572
t1000,t2000,-0.0429915200027473,0.0665530433067427,1,-0.243205293009294,0.1572222530038
t1000,t500,0.029870337791526,0.0598486129115225,1,-0.150174270311471,0.209914945894523
t2000,t0,0.0704525763868434,0.0515224312547506,1,-0.0845440975960422,0.225449250369729
t2000,t1000,0.0429915200027473,0.0665530433067427,1,-0.1572222530038,0.243205293009294
t2000,t500,0.0728618577942733,0.05511541598257,1,-0.0929437137681876,0.238667429356734
t500,t0,-0.00240928140742985,0.02988254320393,1,-0.0923059476547541,0.0874873848398944
t500,t1000,-0.029870337791526,0.0598486129115225,1,-0.209914945894523,0.150174270311471
t500,t2000,-0.0728618577942733,0.05511541598257,1,-0.238667429356734,0.0929437137681876
