correct,incorrect
0.222373301792419,0.115360346792095
0.216607346358141,0.1533029840131
0.200343719803955,0.203271092775791
0.221224699211168,0.160294824008933
0.235043854846591,0.237237049254168
0.215120728599913,0.188485499087261
0.170238323633275,0.199916045946485
0.198706116155812,0.186587747491918
0.227495703395022,0.191674538940682
0.205003799111964,0.223152047422557
0.235754229482883,0.182590078517704
0.220403522693598,0.141639699232475
0.223140636494127,0.262405590715664
0.218618302517583,0.191675497697369
0.277693520394766,0.161870316460041
0.175973107308268,0.196648944404753
0.236371045660037,0.212563008214905
0.301199368077184,0.172419964015105
0.212412178277616,0.231291107646736
0.222788927084485,0.192137676594702
0.2015028391552,0.234670841928374
0.279481920079459,0.164369640679596
0.208940558997193,0.167315911881466
0.209966468835533,0.169534095255086
0.232351160240673,0.233133853448532
0.225351413765357,0.198238884349303
0.218488631129182,0.173572658749735
0.231285733573695,0.168106300016803
0.212491347253338,0.195530352709527
0.216206115232671,0.214175041499499
0.237811485049385,0.173843871867702
0.217221312223557,0.205952304820773
0.228526437471716,0.221618428037537
0.231998318847801,0.191849291173486
0.241004501509799,0.235279031215826
0.200446947134424,0.338540374752448
0.227062933959866,0.183801891553244
0.229476665058078,0.216729965649896
0.243852450285641,0.180769453205925
0.176619075306749,0.195096349050627
0.233297254076463,0.210770410391447
0.225567007151371,0.208364313800402
0.193200657882743,0.218907664853525
0.181665382063107,0.16480093121286
