correct,incorrect
0.140646420767118,0.152338843914878
0.146193245793051,0.165617121027142
0.135101259549375,0.11514757321762
0.136088646674415,0.184371156977441
0.132540467234451,0.173845737431791
0.153736720698764,0.167880370661079
0.170849018536855,0.166832975250227
0.137824472115898,0.158510328306823
0.130989496779761,0.13192295337649
0.150050507857259,0.176925022442736
0.149701394788625,0.146439955315092
0.136483177565509,0.150502465194448
0.138840054615565,0.19765491285055
0.146926689850033,0.122514139223654
0.149783794723118,0.141897331537204
0.1368006618911,0.213244491658331
0.134659156896135,0.17165589747148
0.138080257950959,0.163958354791841
0.138831518486582,0.196996278922327
0.145779079828627,0.169624939756465
0.149583498944284,0.0917527781607588
0.146031099355777,0.136121774691096
0.1651192948941,0.167524919026916
0.151138143799018,0.0930973975802526
0.137191828337991,0.222763438182467
0.142860261294285,0.173547575020462
0.141000541591331,0.142690442492194
0.125092007513243,0.159753415527329
0.134097141318771,0.158283339931296
0.140778836939606,0.135062249777596
0.143022750415944,0.163197434183154
0.153267879738872,0.137451824698107
0.143829000135579,0.161119357337767
0.145015141512371,0.184506269598121
0.143467269614695,0.169390420659655
0.14326559119747,0.109782644654038
0.139033993540885,0.184332404288854
0.121517718667063,0.144823700150989
0.140457498732531,0.127550383143694
0.142275538540231,0.161808013939371
0.145190279748313,0.215648159274348
0.144805528735678,0.192279240530175
0.143985277848586,0.196043238285829
0.143425812364865,0.241621101641549
