t0,t500,t1000,t2000
347.232237915407,345.547093243505,358.168600547804,433.000529935118
428.899400040734,451.466249146119,481.188069708854,453.630421796404
429.818478810161,436.525292157768,508.922957784788,564.86722260924
833.923014023563,756.996898003812,669.309932781707,593.700458898163
385.601083037858,373.084049351496,374.68398563913,564.677238215801
356.151439180226,345.139335381622,399.412352618807,474.769356204801
789.529162556806,760.866955191182,796.964281639923,817.083644052475
309.849547772595,313.033298122416,318.310459994216,351.51553019111
748.795762053872,723.579885987886,615.539768816947,668.705234760336
553.683793836226,550.585945127157,550.143614218724,561.772525842461
504.76295648373,528.723148366127,538.828198638144,519.400766519125
612.614136340521,651.891103442089,710.453333224052,606.159315549237
734.952652087488,766.081619168821,810.361507920979,841.462901587538
585.106966521026,596.172169350648,531.776984315951,640.128115219596
553.733723796698,549.267861894873,479.355793063781,682.617240946593
517.034744326863,526.538227629282,519.948124842746,553.441583498707
597.530687842386,604.709301610149,554.364312425419,618.968782873732
