Row,SumSq,DF,MeanSq,F,pValue,pValueGG,pValueHF,pValueLB,pEtaSq,mauchlyChiSq,mauchlyDF,mauchlyPvalue,epsilonGG,epsilonHF,dfGG,dfHF,correction
(Intercept),4048.03371776968,1,4048.03371776968,1030.2556983004,1.12359860205877e-31,1.12359860205877e-31,1.12359860205877e-31,1.12359860205877e-31,0,-0,0,0,1,1,1,1,
Error,168.953639520024,43,3.92915440744242,1,0.5,0.5,0.5,0.5,0,0,0,0,1,1,43,43,
(Intercept):TimeShift,0.930976090169684,3,0.310325363389895,6.77638441609534,0.000279988288138524,0.000983643169166722,0.000752062132110527,0.0126258385604066,0.136136533329732,20.4425677070176,5,0.00103190187399341,0.777556345598331,0.824883555058272,2.33266903679499,2.47465066517482,HF
Error(TimeShift),5.90757097283502,129,0.0457951238204265,1,0.5,0.5,0.5,0.5,0,0,0,0,0.777556345598331,0.824883555058272,100.304768582185,106.409978602517,
(Intercept):Emotion,43.4372536700847,3,14.4790845566949,36.8065342342746,2.96994543274437e-17,7.63292929175025e-16,7.65094297665384e-17,2.92302463548585e-07,0.461197000814844,7.92802723939806,5,0.160247048784342,0.905447473859956,0.972429628737493,2.71634242157987,2.91728888621248,none
Error(Emotion),50.746476044852,129,0.393383535231411,1,0.5,0.5,0.5,0.5,0,0,0,0,0.905447473859956,0.972429628737493,116.802724127934,125.443422107137,
(Intercept):TimeShift:Emotion,0.957654436840952,9,0.106406048537884,2.02403667208141,0.0356335123743477,0.0538905359522189,0.0412512924936244,0.16204160910867,0.0449545803016919,59.734080266051,44,0.057042059520175,0.756008558780582,0.912869507171281,6.80407702902524,8.21582556454153,none
Error(TimeShift:Emotion),20.3450566643215,387,0.05257120585096,1,0.5,0.5,0.5,0.5,0,0,0,0,0.756008558780582,0.912869507171281,292.575312248085,353.280499275286,
