Emotion_1,Emotion_2,Difference,StdErr,pValue,Lower,Upper
Af,An,-0.0501894516997696,0.0728461018617007,1,-0.251670108549225,0.151291205149685
Af,Ha,0.163638046905289,0.0591891732583305,0.0501530914954532,-6.9731571386622e-05,0.327345825381964
Af,Sa,-0.120741639763159,0.0604295602825967,0.312362070481433,-0.287880130192976,0.0463968506666578
An,Af,0.0501894516997696,0.0728461018617007,1,-0.151291205149685,0.251670108549225
An,Ha,0.213827498605058,0.0620715737828312,0.00772249163994379,0.0421474616802621,0.385507535529855
An,Sa,-0.0705521880633894,0.0489643430603693,0.941152178635972,-0.205979722960655,0.0648753468338765
Ha,Af,-0.163638046905289,0.0591891732583305,0.0501530914954532,-0.327345825381964,6.9731571386622e-05
Ha,An,-0.213827498605058,0.0620715737828312,0.00772249163994379,-0.385507535529855,-0.0421474616802621
Ha,Sa,-0.284379686668448,0.0627433727277175,0.000276268388014423,-0.457917811936028,-0.110841561400868
Sa,Af,0.120741639763159,0.0604295602825967,0.312362070481433,-0.0463968506666578,0.287880130192976
Sa,An,0.0705521880633894,0.0489643430603693,0.941152178635972,-0.0648753468338765,0.205979722960655
Sa,Ha,0.284379686668448,0.0627433727277175,0.000276268388014423,0.110841561400868,0.457917811936028
