correct,incorrect
0.599736103105358,0.352696863004652
0.516679893940221,0.447878901766831
0.539312355424216,0.448140572209728
0.553179945659003,0.445826832685096
0.510784836255828,0.566828024601134
0.537390660604826,0.599129896362802
0.377028631035479,0.385454561155378
0.586234946315137,0.68827973762441
0.519592959539358,0.505545217120439
0.522886828209607,0.615319068689909
0.500650070951524,0.492629242864826
0.428525169708761,0.374114151830037
0.581789141722622,0.610498372585826
0.571179811639806,0.610144454849983
0.497575776622229,0.584913193242464
0.597708349382072,0.626670171952911
0.459240309813651,0.557961906403123
0.432692437862477,0.391430023673346
0.575153574489522,0.572640377122101
0.532140390206911,0.571859948808466
0.519302135085964,0.366169190221451
0.435040617716577,0.470833036150763
0.445732318876796,0.662612669755091
0.574626939405997,0.501303484249046
0.497530795711745,0.681973679476966
0.490164780389498,0.488725451285098
0.54038670777895,0.47279944692132
0.611550825451003,0.533155433786512
0.549884819932464,0.46831965830567
0.536414754312599,0.59380516527209
0.518303681930376,0.545445224513482
0.579530602358168,0.670898076544663
0.584755904354314,0.43946748523125
0.564978557211998,0.494097501163345
0.511232424297687,0.611793207942287
0.47954662683642,0.554133063685422
0.454210484349253,0.634289957031993
0.483683470085052,0.554021127077922
0.427018545126343,0.482132914047847
0.549652052082523,0.564872435333598
0.405038908327665,0.496456524510647
0.487970934012259,0.503844474210554
0.566626929928585,0.507829342393533
0.530134001572975,0.658083978460511
