Row,SumSq,DF,MeanSq,F,pValue,pValueGG,pValueHF,pValueLB,pEtaSq,mauchlyChiSq,mauchlyDF,mauchlyPvalue,epsilonGG,epsilonHF,dfGG,dfHF,correction
(Intercept),63.0846869590846,1,63.0846869590846,89.1742183276825,4.76991571969584e-12,4.76991571969584e-12,4.76991571969584e-12,4.76991571969584e-12,0,-0,0,0,1,1,1,1,
Error,30.4195718236932,43,0.707431902876587,1,0.5,0.5,0.5,0.5,0,0,0,0,1,1,43,43,
(Intercept):TimeShift,0.287056236550498,4,0.0717640591376244,0.773707155512596,0.54369137599697,0.538390385051416,0.54369137599697,0.383962081738678,0.0176751572071309,4.25247966095789,9,0.894022950587732,0.95501848562673,1,3.82007394250692,4,none
Error(TimeShift),15.9536047763364,172,0.0927535161414906,1,0.5,0.5,0.5,0.5,0,0,0,0,0.95501848562673,1,164.263179527797,172,
(Intercept):Emotion,5030.75001245732,3,1676.91667081911,708.464109846512,6.45336874658678e-80,2.00777933624868e-44,7.87215124035545e-46,2.41233128692069e-28,0.94277837166597,57.4426194616994,5,4.09865869178553e-11,0.540930369120394,0.559106575667223,1.62279110736118,1.67731972700167,GG
Error(Emotion),305.339744849645,129,2.36697476627631,1,0.5,0.5,0.5,0.5,0,0,0,0,0.540930369120394,0.559106575667223,69.7800176165308,72.1247482610718,
(Intercept):TimeShift:Emotion,3.0523533829278,12,0.25436278191065,3.23143807281467,0.000168784909863587,0.000937734726024912,0.000245515939690165,0.0792615637511138,0.0698969836872724,92.0823355953324,77,0.115665709275226,0.735307075556807,0.941788035659982,8.82368490668168,11.3014564279198,none
Error(TimeShift:Emotion),40.6169613987286,516,0.0787150414704043,1,0.5,0.5,0.5,0.5,0,0,0,0,0.735307075556807,0.941788035659982,379.418450987312,485.962626400551,
