Row,SumSq,DF,MeanSq,F,pValue,pValueGG,pValueHF,pValueLB,pEtaSq,mauchlyChiSq,mauchlyDF,mauchlyPvalue,epsilonGG,epsilonHF,dfGG,dfHF,correction
(Intercept):TimeShift,0.00778552783833538,3,0.00259517594611179,0.197969527733513,0.897266569727502,0.834916899202054,0.863576466975626,0.662325157193563,0.0122218730807313,9.13835742404214,5,0.103671181203003,0.712096716985235,0.825102201837475,2.13629015095571,2.47530660551243,none
Error(TimeShift),0.629230401463846,48,0.0131089666971634,1,0.5,0.5,0.5,0.5,0,0,0,0,0.712096716985235,0.825102201837475,34.1806424152913,39.6049056881988,
