correct,incorrect
0.297726931360804,0.337100873954796
0.326781568018974,0.350938658256381
0.38600835508436,0.411423459600133
0.357427551921165,0.502550537750437
0.341889639176733,0.316533743411005
0.324376521193285,0.337526743880979
0.4248891039427,0.537166055661991
0.270276902660906,0.541933346584509
0.309323287417695,0.384321465668195
0.361727549742681,0.377319539673455
0.286984741571008,0.36417042866561
0.369434842067018,0.334006021058871
0.338754460728146,0.396503187260722
0.284728908702404,0.41747157291905
0.343094137018586,0.645139587168188
0.353492076934984,0.391539639042147
0.386785804077552,0.436153339331997
0.298567991944679,0.25728181247647
0.317272351342599,0.341750386595295
0.305145201977886,0.361019475625647
0.301569062151312,0.508421697694903
0.300687656416327,0.678941642513496
0.318914384851256,0.431845795012789
0.348815960692235,0.588718011466806
0.353521323836697,0.208398349488132
0.349427090758859,0.427705608025717
0.315943947471958,0.526030099166657
0.233416391734083,0.384323992355769
0.342483166374217,0.428379242956768
0.325908570951705,0.444206909191351
0.317764004075487,0.432015261437437
0.2174857146108,0.349425087851994
0.31765548904939,0.453991698082757
0.372352564896456,0.435074135310065
0.271363827517303,0.478547161069948
0.366343418385567,0.298889105774694
0.296677773074252,0.513082431512534
0.316510961239265,0.3212896579006
0.299269799876103,0.487679710946413
0.345752069707086,0.262728147740884
0.325542927704348,0.529342541850622
0.356797721226515,0.497337583322611
0.335895302259633,0.296833860050408
0.325848269133705,0.378072080468241
