TimeShift_1,TimeShift_2,Difference,StdErr,pValue,Lower,Upper
t0,t1000,4.20514755554052,17.4118326186734,1,-48.175457903412,56.585753014493
t0,t2000,-38.6282989455458,23.2223739867439,0.694146180185606,-108.488952689445,31.2323547983536
t0,t500,0.530079614776923,6.52906038236508,1,-19.1115137428095,20.1716729723634
t1000,t0,-4.20514755554052,17.4118326186734,1,-56.585753014493,48.175457903412
t1000,t2000,-42.8334465010863,19.2538956546331,0.245051165789802,-100.755592545126,15.0886995429534
t1000,t500,-3.6750679407636,13.1171473643267,1,-43.1358263735587,35.7856904920315
t2000,t0,38.6282989455458,23.2223739867439,0.694146180185606,-31.2323547983536,108.488952689445
t2000,t1000,42.8334465010863,19.2538956546331,0.245051165789802,-15.0886995429534,100.755592545126
t2000,t500,39.1583785603227,20.5184756162046,0.446642841996914,-22.5680461882652,100.884803308911
t500,t0,-0.530079614776923,6.52906038236508,1,-20.1716729723634,19.1115137428095
t500,t1000,3.6750679407636,13.1171473643267,1,-35.7856904920315,43.1358263735587
t500,t2000,-39.1583785603227,20.5184756162046,0.446642841996914,-100.884803308911,22.5680461882652
