t0,t500,t1000,t2000
0.951022825303972,0.941357491928571,0.996470252677066,0.9718874925227
0.965071438013458,0.920371666148997,0.848200693841866,0.786790869495116
0.911377628843766,0.866819028683256,0.991299167369906,0.758600366643331
0.92841774781639,0.9711708619324,0.82971343502189,0.780846480888793
0.8494983100142,0.845238208170613,0.731699272805923,0.794980813566899
0.922644602410447,0.962035106473172,0.886595560437803,0.566248687534537
0.86128172550185,0.839841201299533,0.967948730411046,0.752574503248106
0.884390604175069,0.912091952958383,0.736223392546729,0.404773364021324
0.878968737935012,0.995605051195964,0.775379238962595,0.635776747748329
0.862812110339917,0.771192489190524,0.614671987762332,0.790781226733171
0.977789134156381,0.950635144931802,0.915083081841988,0.897430426946662
0.908647050624121,0.8052922041083,0.774184998071487,0.944997691115693
0.971687751105851,0.999230737569726,0.982780317756499,0.691514081876016
0.78410282579948,0.790541355821204,0.843673228252536,0.882966811434727
0.760342543656313,0.810914629921805,0.82692193084198,0.683118881233268
0.791157021598339,0.790158522129437,0.818549812410111,0.785415320317999
0.800904230695972,0.784202007849453,0.888340521749807,0.973075301764298
