t0,t500,t1000,t2000
988.954957388895,981.756225715616,939.543822767392,652.143728776459
773.481260063264,776.521509467456,836.545465449506,635.10586745669
836.051667765373,610.376547303436,819.432227165461,603.073146308058
883.33062986048,877.88167600557,892.072250312229,740.520644041666
823.271778579502,884.58956890154,877.05548171757,1029.98361557092
1412.47722706566,1420.09501320366,1415.44780394054,1533.28361425442
780.922597789029,869.336084909902,809.746085407322,422.728463633616
1724.20886436882,1746.42544182936,1758.75999146003,1724.49778462553
1534.01125845938,1504.65719409575,1581.00111514028,1357.39212062156
998.138286543388,946.806420545683,1019.99668310205,922.618225776088
959.017710039368,950.720133578452,987.955365124761,895.207316581494
1664.33617138608,1669.06132313116,1679.94722685693,1669.71641981044
1044.66299640334,1016.75374575704,1199.79894805207,937.098674040761
1563.36134146097,1576.96492060886,1577.70157566141,1465.22825683275
969.444015719351,973.238334093788,971.63394879879,936.303544138282
1126.68058065241,1138.14907985958,1203.07819751326,1137.28204196053
1654.88763295941,1652.43672740838,1634.71986386382,1633.85931437863
