Row,SumSq,DF,MeanSq,F,pValue,pValueGG,pValueHF,pValueLB,pEtaSq,mauchlyChiSq,mauchlyDF,mauchlyPvalue,epsilonGG,epsilonHF,dfGG,dfHF,correction
(Intercept):TimeShift,760.256225190578,3,253.418741730193,1.52498526962155,0.220030927258317,0.225042215252963,0.220030927258317,0.234694913786576,0.0870177775421597,3.76044426178653,5,0.584395210243853,0.881160296654561,1,2.64348088996368,3,none
Error(TimeShift),7976.53580356743,48,166.177829240988,1,0.5,0.5,0.5,0.5,0,0,0,0,0.881160296654561,1,42.2956942394189,48,
