Emotion_1,Emotion_2,Difference,StdErr,pValue,Lower,Upper
Af,An,0.0123462028157744,0.0628450170780063,1,-0.161473054453901,0.18616546008545
Af,Ha,-0.327609808715222,0.0756148739931844,0.000521428141408735,-0.536748446066872,-0.118471171363572
Af,Sa,0.374429030731363,0.0707114873713897,2.29807113173381e-05,0.178852375861928,0.570005685600798
An,Af,-0.0123462028157744,0.0628450170780063,1,-0.18616546008545,0.161473054453901
An,Ha,-0.339956011530997,0.0560376637389829,1.75543713073356e-06,-0.494947219157649,-0.184964803904344
An,Sa,0.362082827915589,0.0594498162868954,1.61981925059424e-06,0.197654152544552,0.526511503286627
Ha,Af,0.327609808715222,0.0756148739931844,0.000521428141408735,0.118471171363572,0.536748446066872
Ha,An,0.339956011530997,0.0560376637389829,1.75543713073356e-06,0.184964803904344,0.494947219157649
Ha,Sa,0.702038839446586,0.0740262417942835,2.52455604787044e-11,0.497294104455482,0.906783574437689
Sa,Af,-0.374429030731363,0.0707114873713897,2.29807113173381e-05,-0.570005685600798,-0.178852375861928
Sa,An,-0.362082827915589,0.0594498162868954,1.61981925059424e-06,-0.526511503286627,-0.197654152544552
Sa,Ha,-0.702038839446586,0.0740262417942835,2.52455604787044e-11,-0.906783574437689,-0.497294104455482
