stimCode,stimCat,cat_t01,cat_t02,cat_t500,cat_t1000,cat_t2000,val_t01,val_t02,val_t500,val_t1000,val_t2000,rt_cat_t01,rt_cat_t02,rt_cat_t500,rt_cat_t1000,rt_cat_t2000,rt_val_t01,rt_val_t02,rt_val_t500,rt_val_t1000,rt_val_t2000
s8t08v2,An,An,An,An,An,Ha,-2,-4,-5,-5,2,1.031788,0.4433671,0.4590319,0.6570006,0.4962603,1.857081,1.5159049,1.5964213,1.6356741,1.7068375
s5t07v5,An,An,An,An,Ha,An,-3,-2,-1,-1,-3,1.4369871,0.4763398,0.871606,3.5426052,0.5675281,1.2674938,1.4256635,2.2887547,5.5374574,2.3553152
s5t08v5,An,An,An,An,Ha,An,-5,-5,-5,2,-3,0.8174965,0.5711546,0.6160949,0.5751244,0.5188203,1.6295028,2.0871416,1.4542649,2.1833986,2.0494197
s3t20v2,An,An,An,An,An,Ha,-4,-4,-3,-5,-2,0.6344457,0.5330011,0.4808426,0.4476451,0.3852025,3.2744283,1.2687957,3.8763584,1.4346223,1.1856373
s8t07v2,An,An,An,An,An,An,-3,-4,-4,-2,-4,0.5713886,0.5127621,0.4545113,0.5263109,0.4961226,1.7322651,1.1918875,1.3082516,2.0656449,1.3240181
s8t06v1,An,An,An,An,An,An,-3,-2,-3,-4,-3,0.4499251,0.5249249,0.7184356,0.7471793,0.4740017,1.3553345,1.7426017,1.3576818,1.6537742,1.4886612
s3t10v2,An,An,An,An,An,An,-4,-3,-3,-4,0,0.4503286,0.4217404,0.5027886,0.5341525,3.3932837,1.3301444,0.9781622,1.849399,2.1280457,1.6152409
s11t04v2,An,An,An,An,An,An,-3,-3,-3,-1,-2,0.5509275,0.4467163,0.5194166,0.5955225,0.6426287,1.5994958,2.5891774,1.9633144,2.3028357,0.9984828
s8t05v1,An,An,An,An,An,An,-2,-2,-2,-3,-5,1.6029871,0.5170093,0.5420583,0.3443286,0.4945398,1.5959856,0.7946139,2.1972249,0.9583258,1.9605477
s7t09v1,An,An,An,An,An,An,-3,-2,-2,-2,-3,1.2229109,0.6898623,0.384855,0.7778968,0.6602277,4.3785587,1.2337264,1.2559773,1.4179104,1.3098884
s3t24v3,An,An,Ha,An,An,An,-2,0,-3,-4,-3,0.5783164,0.4532291,2.0806119,1.009777,1.381922,1.4252587,2.9150736,3.5108518,2.0515607,1.2504088
s10t06v1,An,An,An,An,An,An,-2,-2,-1,-3,-2,0.4102278,0.621129,0.7433711,0.4573701,0.4686193,1.842036,1.2064902,1.6587187,1.0926117,1.9514813
s10t08v1,An,Ha,Ha,Ha,An,Ha,3,2,2,-4,1,0.6087734,0.5197382,0.5542237,0.5613579,1.1016704,1.7296292,1.7832813,1.197683,1.2885722,3.6022251
s7t03v1,An,An,An,An,An,An,-3,-4,-3,-1,-3,0.5201231,0.4285812,0.5450105,0.4516882,1.024618,2.1061561,1.2424271,1.8368891,0.6446215,2.4730039
s7t32v1,An,An,An,An,An,An,-4,-1,-3,-1,-3,0.9626267,0.5250611,0.6151369,0.4392386,0.4210209,1.3745078,1.4041993,1.9343659,1.0194643,1.0406764
s5t05v2,An,An,An,An,An,Sa,-2,-2,-3,-2,0,1.7247227,0.6455896,0.8641302,1.0553551,0.6360556,1.3535068,1.7814077,1.0533169,0.9600149,1.3292352
s10t04v2,An,An,An,An,An,An,-2,-2,-2,-3,-2,0.5719325,0.4213006,0.4557283,0.4032541,0.4550604,4.2130609,0.7614744,1.8758078,2.3812722,1.1027305
s5t15v2,Ha,Ha,Ha,Ha,Ha,Ha,5,2,5,4,3,0.5873771,0.6542287,0.7960089,0.5770202,0.9882649,1.5555966,1.0134599,2.1064366,1.4062669,2.4306587
s10t12v2,Ha,An,Ha,Ha,An,Ha,-4,4,4,-2,2,0.4330704,0.4153059,0.6707568,0.5514694,0.5134946,3.1079631,1.4249975,1.6070848,4.7688472,2.2104041
s5t11v2,Ha,Af,Af,Ha,Ha,Ha,4,2,2,2,3,1.662714,0.8449959,0.4559743,1.8718942,1.1290855,1.4082493,1.1143672,2.0494752,1.483286,1.9346375
s7t15v2,Ha,Ha,Af,Ha,Ha,Ha,5,3,2,3,2,1.8771413,0.8778263,0.5072633,0.6807449,0.5345273,1.7842607,1.4381364,5.7816313,3.1184802,3.067212
s7t21v1,Ha,Ha,Ha,Ha,Ha,Ha,4,3,3,3,3,0.6993597,0.9213374,0.6203781,0.5671728,0.5226845,2.0053866,1.3215745,2.088358,3.3991794,1.2041845
s7t14v1,Ha,Ha,Ha,Ha,Ha,Ha,2,3,3,4,3,0.5861916,0.5098312,0.5799237,0.5373232,0.472785,1.6839459,1.6111445,1.5005577,1.2690203,1.8173407
s7t20v2,Ha,Ha,Ha,Ha,Ha,Ha,5,3,3,4,4,0.6024116,0.4492548,2.0001062,0.6560768,0.506165,1.8942519,2.397574,2.7542127,3.4988535,1.7108019
s3t26v1,Ha,Ha,Ha,Ha,An,Ha,2,2,3,-2,1,0.4168676,0.5552126,0.5625342,10.6888859,0.3812576,1.1316188,0.9757813,1.1811862,4.5000716,1.050993
s8t12v1,Ha,An,An,An,An,Ha,-5,-4,-2,-2,2,0.5286399,0.4404439,1.0880139,1.0118978,1.1994965,1.416585,2.0885489,1.9795384,1.9802623,1.4242942
s5t12v2,Ha,Ha,Ha,Ha,Ha,Ha,4,3,3,3,2,0.6750236,0.5011578,0.4455999,1.1120582,0.5358737,3.4022097,1.2483808,1.7997491,1.4966413,0.9049988
s11t07v1,Ha,An,Ha,An,Ha,Ha,-2,0,-2,2,2,0.5281585,2.0566469,0.4086414,5.568731,0.4256967,4.6884345,2.9187802,1.0346459,0.9658114,1.2213537
s10t10v2,Ha,Ha,Ha,Ha,Ha,Ha,2,3,2,2,3,0.5828877,0.4773375,0.3721615,0.5700996,0.4544767,1.5645549,2.4651728,0.8077042,1.1433369,1.3883318
s5t17v2,Ha,Ha,Af,Ha,Ha,An,2,0,2,3,-2,0.4863977,0.4821562,0.5004847,0.5762186,0.7774223,1.3024152,2.8896415,1.4625402,1.1831408,1.0320112
s3t11v1,Ha,An,An,Ha,An,Ha,-3,-2,1,-2,3,0.5499283,0.5450653,1.0086312,0.389942,0.5787269,4.1443267,1.3266444,3.0212688,1.2657962,1.5394867
s11t09v1,Ha,An,An,Ha,An,Ha,-2,-2,-2,-4,2,0.676234,0.5739682,0.499247,0.5014805,0.4959609,3.2552075,1.7300983,1.8417518,1.6249217,1.4720913
s8t13v1,Ha,An,Ha,An,Ha,An,-4,2,-4,4,0,0.6388256,0.4612988,0.4309131,0.4534823,0.5345087,2.0188602,0.9219978,1.9422835,1.6165664,3.1864383
s8t15v2,Ha,An,An,Ha,An,An,-5,-4,3,-4,-3,1.0776077,0.4304581,0.4925565,0.5014798,0.7611759,2.2874839,1.376718,1.2984265,2.5207648,2.198567
s7t27v1,Af,Af,Af,Af,Af,Af,5,5,5,3,4,0.5822138,0.6622479,0.4953858,0.5728195,0.830066,1.9183391,1.7673841,3.3758921,3.1523097,1.3842285
s3t03v2,Af,Af,Af,Af,Af,Af,5,4,4,3,5,0.5850211,0.6059003,0.5552444,0.6297501,0.3965246,1.619863,1.6646083,1.7645996,1.4993553,1.6319629
s7t30v2,Af,Af,Af,Af,Af,Af,4,3,3,4,2,0.4596103,0.4367787,1.0004549,0.4787087,0.3518727,1.7719696,1.755963,1.6325896,1.8814518,1.6748547
s7t24v1,Af,Sa,Ha,Ha,Sa,Sa,0,2,3,-2,-3,3.0864125,0.6033099,3.4289143,0.4139607,0.4292512,2.568957,1.406804,2.9146614,0.9886251,3.631304
s7t25v2,Af,Ha,Af,Af,Af,Ha,2,3,2,3,4,0.5389681,0.3182365,0.5730611,0.5179406,0.6616677,2.0709221,1.0237749,1.1836312,1.7818868,2.0782369
s8t20v1,Af,Sa,Sa,Af,Af,Sa,-4,-2,2,3,3,1.0557001,1.3552979,0.4678574,0.425187,0.7011204,3.8543611,5.2387162,1.2282264,1.4718201,2.8781072
s10t19v1,Af,Af,Af,Ha,Ha,Sa,0,1,0,0,-3,0.440001,0.4980759,0.7055269,1.0891822,0.4094961,1.7748602,1.070454,1.1948953,2.3555691,1.7829874
s3t05v1,Af,Af,Sa,Sa,Sa,Af,1,-2,-3,-2,3,0.4297873,0.4747591,0.471283,0.9300129,0.4936365,3.0518233,1.9229373,1.189705,1.7730556,1.4208752
s10t17v3,Af,Af,Ha,Ha,Ha,An,2,0,2,0,0,0.4615686,0.4255481,0.4091854,0.6303884,1.1231623,2.5415871,2.8212505,1.0184306,2.420755,3.4455268
s5t19v2,Af,Sa,Af,Af,Af,Ha,-2,3,2,2,2,0.5281561,0.5052276,0.5672709,1.3923334,0.5528731,1.5815844,1.1671771,1.9222471,0.8966479,2.1542187
s8t17v2,Af,Sa,Sa,Af,Ha,Ha,-2,-3,4,2,2,1.3034182,0.4569474,0.4713683,0.6077393,0.4749138,4.228432,0.9282162,1.377683,1.059573,0.8128557
s10t20v2,Af,Af,Af,Sa,Ha,Af,2,2,-2,2,2,0.764942,0.4414322,3.1603984,1.3236406,0.5978526,2.1454467,1.0893532,1.7623738,1.4851891,1.7647363
s7t26v1,Af,Af,Af,Ha,Af,Sa,2,3,1,1,-1,0.4473728,0.7912872,1.0817545,1.9406246,1.0918958,2.5741566,3.5812977,5.5984545,1.8852878,2.9482418
s3t22v2,Af,Af,Af,An,Ha,An,5,3,0,2,-2,0.6377795,0.3863551,5.3189474,1.4151054,0.5145864,2.9059856,1.3382013,1.7456093,4.0180148,2.8163603
s3t28v1,Af,An,Sa,Ha,Af,Ha,0,-2,1,3,0,0.3695465,0.3430499,0.4076906,0.6084157,0.5356567,1.4679923,1.0465164,2.5811138,1.9086416,1.1718693
s3t19v2,Af,Af,Sa,Af,Af,Af,1,-1,0,3,2,0.5718444,0.4429873,0.6018649,1.0261311,0.5124812,2.0983145,1.4489851,1.7296918,2.8753504,1.8084889
s3t16v2,Af,Sa,Sa,Sa,Ha,Sa,-3,-4,-2,2,-1,1.2101146,0.4670281,1.120484,0.5341012,0.408746,1.7387788,1.450781,1.2575627,2.956261,2.9575215
s11t20v2,Sa,Sa,Sa,Sa,Sa,Sa,-3,-2,0,-3,-4,0.4441409,0.5542517,0.7931962,0.5126093,0.4580703,1.7806415,2.0060462,1.56917,4.545102,1.5341472
s3t32v1,Sa,Sa,Sa,Sa,Sa,Sa,-4,-5,-3,-3,-4,1.6771561,0.4854351,0.394502,0.6088808,0.4215341,2.6873801,1.7159824,1.4789714,1.9595468,1.1153217
s10t25v2,Sa,Sa,Sa,Sa,Sa,Sa,-5,-3,-4,-2,-4,0.5433893,0.3968734,0.4704568,0.411505,0.6273383,1.4594407,1.2246114,1.7208207,1.6325412,2.7486458
s7t34v2,Sa,Sa,Sa,Sa,Sa,Sa,-2,-2,-2,-2,-3,0.4825866,0.3998256,0.9085959,0.354306,0.6767105,1.2051421,1.3142865,1.6315035,1.4338184,1.4048266
s7t31v2,Sa,Sa,Sa,An,Sa,Sa,-5,-5,0,-4,-4,0.5269975,0.8146288,2.1354145,0.3865871,0.5100367,1.3321576,1.6626273,4.3246442,1.1144146,1.7310864
s7t35v1,Sa,Sa,Sa,An,Sa,Sa,-3,-1,0,0,-4,0.5246178,1.5375153,2.0560454,0.7647538,0.7052377,5.4446857,3.3845451,3.8899158,1.4427093,1.7344738
s8t23v1,Sa,Sa,An,Sa,Sa,Sa,-2,-1,-3,-1,-3,0.5230966,1.026904,0.510581,0.5588094,0.3711874,1.3500289,2.132606,1.8603175,0.6274281,1.3757658
s3t17v2,Sa,Sa,Sa,Sa,Sa,Sa,-2,-2,-2,-2,-3,0.4810163,0.5428061,0.4214898,0.4131623,0.4974929,1.2993671,1.4925293,1.6904079,0.8554241,1.5363691
s7t32v2,Sa,Sa,Sa,Sa,An,Sa,-3,0,-3,-3,-3,0.4887687,0.5603032,0.4047462,0.4348889,0.4906067,1.0961786,1.7743508,1.1718373,2.0968686,1.2382445
s11t17v2,Sa,Sa,Sa,Sa,An,Sa,-3,-1,-2,-2,-2,0.6704213,0.4978017,0.8821754,0.3640913,0.4058638,1.5925025,0.5476701,2.019449,1.0147781,1.4967909
s8t27v2,Sa,An,An,Sa,Sa,An,-1,0,-3,-2,0,0.6168228,1.3381548,0.8130312,0.6828855,0.8206949,2.7537402,1.7546209,1.6183195,1.3339676,1.3509129
s11t18v1,Sa,Sa,Sa,An,Sa,An,-2,-1,-2,-2,-1,0.514912,0.4444468,0.5969752,0.3849977,0.5933,1.6063004,1.8969818,4.4951414,1.1831503,1.8876011
s10t22v1,Sa,An,Sa,Sa,An,Sa,0,-2,-2,0,-2,1.801662,0.5464563,0.3902806,1.2539234,0.4657167,5.0839269,0.6962371,0.9061943,2.0204833,1.2779442
s10t21v2,Sa,Ha,Sa,Sa,Sa,Sa,0,-2,0,-1,-2,1.2963629,0.7021262,0.4668707,0.4493293,0.6264332,2.0494726,1.3380553,1.6697321,1.1682178,4.8867326
s8t25v1,Sa,Sa,Sa,An,Sa,An,0,0,-1,0,0,0.6140586,0.5098671,0.4999544,0.4760082,2.2252698,1.9331124,1.8923168,1.2852742,2.2603356,1.1874493
s11t19v2,Sa,Sa,Sa,An,Sa,An,-2,0,-1,0,-1,2.4447796,5.7054738,0.4779067,0.6609745,0.9697638,2.2134965,2.3445496,3.5244258,1.2516217,1.5515136
s8t16v1,Sa,Sa,Af,Af,Af,Ha,-3,-3,3,1,2,0.3907605,0.6094954,1.7688443,2.3133026,0.8733512,2.2088185,6.484126,1.5697938,3.9554696,1.3148628
