stimCode,stimCat,cat_t01,cat_t02,cat_t500,cat_t1000,cat_t2000,val_t01,val_t02,val_t500,val_t1000,val_t2000,rt_cat_t01,rt_cat_t02,rt_cat_t500,rt_cat_t1000,rt_cat_t2000,rt_val_t01,rt_val_t02,rt_val_t500,rt_val_t1000,rt_val_t2000
s8t08v2,An,An,An,An,An,An,-4,-3,-3,-4,-3,1.8266331326735,0.992416729917604,3.00416552016707,0.964786374746283,0.745853907197313,1.44190240571863,1.1217022965344,1.53156641250624,1.60462552105657,1.0939732161403
s5t07v5,An,An,Ha,An,An,Ha,-3,-3,4,-3,3,4.06904509738852,0.767842751247139,2.84966005777869,0.885580887969843,0.454752813057926,2.99454518707208,1.60182455941426,1.48643334605683,1.6987018610682,1.95737611817311
s5t08v5,An,An,An,An,Ha,An,-3,-4,-3,3,-4,0.334345674149094,0.743508450048214,0.437330743669734,0.504912557310725,0.946814474290632,0.994446461849299,3.00478866204352,0.897334565606576,1.57783090910779,1.58653778952271
s3t20v2,An,Ha,An,An,An,An,-2,-4,-3,-3,-4,1.50720327572244,1.26440813984574,1.81522645953268,7.54347746401295,0.748844988204291,3.11858316598105,2.26079196200741,1.89583853636436,1.36729937153087,1.94012315238434
s8t07v2,An,Sa,An,An,An,An,-4,-3,-4,-3,-4,5.65570311663799,1.29619472914833,0.301105575873511,1.71602373901743,0.63345035367578,5.10071145696436,0.903865581210537,1.4603884593147,1.21754102839425,1.14024993121002
s8t06v1,An,An,An,An,An,An,-3,-4,-3,-4,-4,4.05103849648328,0.37283727004232,0.597442039252562,1.6847943118632,2.99019736735998,0.964134397284959,1.20866357816374,2.3890037696418,1.41147646503099,2.2213922895601
s3t10v2,An,An,An,An,An,An,-4,-3,-4,-4,0,0.404840859339528,4.40055364322953,1.80155350491647,2.32806147160208,2.82062848867812,1.46258387367472,0.985203435051266,4.93336194084013,3.15628544883077,2.88547580914362
s11t04v2,An,An,An,An,Sa,An,-3,-3,-3,-2,-3,3.52696005000775,1.74152759198918,0.948083240024965,1.01157235556915,1.27511884903985,1.91138971390701,2.78527215171623,1.72524965996003,1.25934773907021,1.10619315052224
s8t05v1,An,An,An,An,An,An,0,-3,-4,-2,-4,1.62064686525424,0.779337886097485,0.610355005148863,1.40104238195616,0.341880070358827,0.743383332934197,0.957987530320129,1.46007566652966,1.94024924697581,1.78734684761078
s7t09v1,An,Ha,Ha,An,An,Sa,2,0,4,-2,-3,0.698428656120011,0.766995767033889,1.4984612061192,0.590264422313269,1.25663817156977,3.98278320087699,1.86158919261829,2.30509808253135,1.75164350615298,6.61334608615584
s3t24v3,An,An,An,Ha,An,Ha,-2,-4,3,-3,0,1.09738607866836,0.66515483487229,0.618721723410047,1.00218612832422,1.67317650359247,2.0335377401601,0.970518302532204,1.07300094864187,1.45502406305121,4.2019678576089
s10t06v1,An,Ha,An,An,An,An,-2,-4,-3,-3,-3,1.99667022305547,3.78896359531847,2.23855044003591,1.8651149537922,2.87867549850128,1.89957787636181,2.32079246052091,2.07080064689458,1.25561670763112,6.78317106393045
s10t08v1,An,An,An,Ha,An,An,-4,-3,-4,-4,-4,2.64713601549888,0.976018079422975,0.644819393934655,0.975884653750605,0.271212849136619,0.854647636483955,2.88005716288147,1.28885876086161,1.46301689618652,1.11266160756919
s7t03v1,An,An,Sa,An,Ha,An,-3,-3,-3,3,-3,3.83797822473477,8.2688835203655,0.955433870473485,1.76222469958452,1.89480143278645,2.29409266388509,1.41775382523583,2.03200554425211,8.42522615162728,1.0566125616605
s7t32v1,An,An,An,An,An,Sa,-5,-2,0,-2,0,2.83476427886845,0.555828869112348,2.08290817136939,2.43669684954129,2.8632210912265,1.67143219507713,3.61344285642371,1.73965670014364,0.953116760170531,1.25696660399407
s5t05v2,An,An,Sa,An,An,Sa,-2,-3,-2,-2,0,0.539067085743833,0.813335040660618,1.87006685457042,0.38310176077901,2.03410223338936,1.00519627014153,1.64667073623113,1.05851375530709,1.05727529137381,1.30343930329317
s10t04v2,An,An,An,Sa,Sa,Sa,-2,-3,-3,-1,-3,2.07837658589608,0.786396739526207,1.12610485498389,1.00842194573729,0.706436640155849,0.889215637879793,3.7414288667664,1.38209838017324,1.18110897749505,1.66354150833568
s5t15v2,Ha,Ha,Ha,Ha,Ha,Ha,4,4,5,5,4,1.62612562637977,0.981502705413221,0.807088959734283,0.79850719643338,4.29199597474785,1.28454319790546,2.93945602402249,2.23526953696404,2.06685310419959,1.84318182595721
s10t12v2,Ha,Ha,Ha,An,Ha,Ha,5,3,-3,3,-2,1.14158321045627,0.426724135824402,1.04477775339515,1.41053173307241,3.12320370190261,2.39161265696455,0.84443592952974,1.61450439693795,2.94099897218246,1.0868762410909
s5t11v2,Ha,Af,Ha,Af,Af,Af,4,4,3,3,4,0.793178966835656,2.06352772590359,0.623899910218696,0.869511647376964,0.382957094115928,1.29817118855882,1.12090614114872,1.17324517138357,1.83841417967893,1.67230019505563
s7t15v2,Ha,Ha,Ha,An,Ha,An,3,3,-2,3,-4,0.526441009480065,4.01867030809601,4.23460778472819,0.818159869369913,0.581171927043038,3.56186430364751,1.1218362109455,8.50120938397905,3.63850586706404,2.27271229954992
s7t21v1,Ha,Ha,Ha,Ha,Ha,Ha,-4,4,3,4,4,0.520929014121128,2.83233817982946,0.644273961515735,1.32921684995183,3.03237014334218,1.24835893754066,2.37603704248557,1.33731964930064,1.22461601020095,1.24606430921913
s7t14v1,Ha,Ha,Af,Ha,Ha,Af,4,2,3,2,3,1.62854732677022,1.9348130061195,1.07816349581126,0.781667703607332,5.7019998699955,1.51231206163191,0.900945367318921,1.15575076866383,0.907314121665641,1.58233708016732
s7t20v2,Ha,Ha,Ha,Ha,An,Ha,3,2,3,4,3,0.563051938753218,0.886473813623397,0.569162639052277,2.18423983777784,5.12852313420326,3.22938267900178,1.89049368964993,0.779027048267348,2.10339072266374,1.19476531499455
s3t26v1,Ha,Ha,Ha,Ha,Ha,Ha,4,4,3,2,2,6.89225559275943,4.94842731208851,0.426605372313831,0.815109162238287,0.918507215982929,6.1530817664777,1.6928731630144,1.44062728638086,1.49257043824713,1.30442264561115
s8t12v1,Ha,Ha,An,An,An,Ha,0,-3,-4,-3,-3,2.89031578875344,1.92299970235812,1.84917180779079,0.888539712220863,3.92615499957724,1.07882915795694,1.330823822885,1.31198196749594,1.11526316381105,3.81653774553623
s5t12v2,Ha,Ha,Ha,Ha,Ha,Ha,-3,-3,4,-3,4,3.4352159711996,1.75977611856411,0.884215840706364,6.16424113782285,3.82485705614093,5.17226134032686,2.40786810701228,1.07528971209868,1.09953555158808,1.49917232096645
s11t07v1,Ha,An,An,Ha,Ha,Ha,-3,-2,0,2,2,1.24271938137407,1.8505705780264,6.13518219935359,1.43233730009975,0.653101071657406,2.06326820563975,6.59646114062822,2.70655931357623,1.4098323479546,1.46134198857036
s10t10v2,Ha,Ha,Ha,Ha,Ha,Ha,2,3,1,-3,3,2.64452810565358,1.28707193207705,1.30464990911903,4.67351177835894,0.328805820682739,1.19858871805298,1.33892808844998,2.03956388865945,1.22887048081627,0.860168429139971
s5t17v2,Ha,Af,Ha,Ha,Sa,Ha,3,3,3,2,-2,0.686524446955475,0.960183433418879,0.401564843654925,6.44518477500668,0.956618573146837,0.995375554168624,4.67332068151683,2.62442188317874,4.17930162168397,1.12742053963598
s3t11v1,Ha,Af,Ha,An,Ha,Ha,2,-4,-4,2,4,0.659126242679305,9.44542376824401,1.07719481565508,0.828407742989898,0.303717395628623,2.47775236879442,4.15404751420153,4.88049996016779,2.53645086734018,1.67072108022988
s11t09v1,Ha,Ha,An,Ha,Ha,Ha,3,-4,4,3,3,0.367078461626434,1.05444891531771,0.568552204382716,0.594537465000198,0.683041206050781,0.865744449272097,1.92899506031769,1.24649195560493,1.97717248029528,3.31287880305931
s8t13v1,Ha,An,An,An,Ha,Ha,-3,-2,-4,-2,3,0.478247949863226,0.488394165828072,1.15566230695431,1.23457210680114,1.14266185682595,1.20132223375103,2.95903391993384,3.05777575982988,2.12907296527071,1.39604747217
s8t15v2,Ha,Ha,An,An,Ha,Ha,3,-4,-2,3,3,1.86942171945126,0.444819198439164,0.997337351417318,0.502671201510398,0.540479540663795,3.00893658761644,1.74687439365852,1.79906435858174,1.69614184761811,1.74099242308352
s7t27v1,Af,Af,Af,Af,Af,Af,4,5,5,4,3,0.773918751096608,0.846642584880477,0.648570463661543,0.716946477733308,0.509174847745668,1.78377465625784,1.2951957471911,2.27144451129304,1.13304005751477,0.810770628561989
s3t03v2,Af,An,Af,Ha,Af,An,3,4,1,3,-3,9.69840128675132,0.666248632142489,0.543647056351086,1.60899435653392,9.10088593668976,2.33745991731518,1.67493596300834,1.5540826056421,3.02615583043308,6.86518191099775
s7t30v2,Af,Af,Af,Af,Af,Af,5,3,4,3,0,0.570948979098111,0.677367926912056,1.12764535945023,2.68032186377581,0.827114540319234,2.10709878338269,1.09390870262839,1.05594201212756,1.35497338084525,6.76612630083921
s7t24v1,Af,Ha,An,Ha,Sa,Af,-2,-3,4,0,2,5.48768011854847,0.943922607245161,4.071727784259,1.40333994271005,1.66268426060917,1.19174099975416,2.88648261092048,2.79839625274244,1.24305807731162,2.40742139981614
s7t25v2,Af,Af,Ha,Ha,An,Ha,4,4,4,-2,3,2.00168174995834,0.373643200202533,7.15856150508068,1.03032183933887,1.12769472206162,1.46650453573975,1.52523235860911,2.56735430576374,3.75673078755847,2.71818054301805
s8t20v1,Af,Af,Ha,Af,Af,Af,4,5,4,4,4,0.724931979787721,5.83539035317727,0.56378846801425,6.072140768483,0.31860193354815,1.33918125511037,1.71343391250502,1.17824887846681,1.38491938010335,0.844622138984587
s10t19v1,Af,An,Ha,Sa,An,Sa,-3,2,-4,-4,-3,1.6033650638806,3.31810439752444,3.11356821790709,1.08070151601866,0.814682982068665,1.33638566959405,1.20795490701013,2.78242671484979,10.7662880733577,1.56588808958385
s3t05v1,Af,Af,Af,Af,Ha,Af,4,3,2,3,3,1.55533377678227,0.461898661979988,0.683533365948498,3.78033051445127,2.43702479322686,1.2823213916542,1.04440093583691,1.29293630805788,4.44229486291612,0.846000382193684
s10t17v3,Af,Af,Ha,Ha,Ha,Ha,2,-3,3,3,3,4.06500616055165,0.884507617726163,2.45387357208872,1.42570511557938,0.498323381798295,1.14636991754489,1.41387079605275,1.23524803246007,2.31424140662915,1.08533915779565
s5t19v2,Af,Sa,Ha,Af,Sa,Ha,-2,3,3,-4,0,9.80202367157148,0.78590897827703,0.330344858932898,0.600575343228989,1.09050170496505,1.62179882243291,0.916086004331203,1.01538256268196,1.40267428056438,0.879523948930713
s8t17v2,Af,Af,Ha,Af,Ha,An,4,4,3,3,-3,0.811196319992884,2.98999258583352,0.358246464097497,1.1618414306751,2.25859214899884,3.57484960287535,1.111217384632,0.901266957401044,1.25581513555413,3.00424274088588
s10t20v2,Af,Af,Ha,Ha,Ha,Ha,3,3,3,3,-3,1.37917670006544,3.83113930373304,1.01218279023871,3.88090903448198,4.15679129341283,1.13544123087871,3.40834560474819,1.46335168221426,3.00844882636726,1.59965211577438
s7t26v1,Af,Af,Ha,Ha,Af,Af,4,-1,4,2,-2,1.62031452292014,1.9034061668075,1.34042460643092,0.367838939085071,1.51092893103554,1.132313791767,1.01189296817382,2.62870421190147,0.934350170545379,1.51775270113676
s3t22v2,Af,Sa,Sa,Af,Sa,Ha,-3,3,3,-2,3,5.48599445868032,2.77851729377547,0.456932587778697,1.04196017463612,1.22302272195214,1.47193100182153,1.59164999660327,1.49690017462635,3.07096339689055,0.814455718560782
s3t28v1,Af,An,Af,Sa,Af,Ha,-3,3,-1,2,2,1.13659807544464,0.744945830643234,1.02687818627104,1.92186973842215,1.23997560216277,2.12642449011111,1.03402696762546,1.39020313447695,1.29187085763383,2.00876943897193
s3t19v2,Af,Ha,An,Ha,Af,Sa,3,-4,3,2,-3,3.85068592036589,3.4971030011979,2.91326989178836,0.453885790556884,1.9691381043682,2.12485857123098,1.26868069379395,3.04845600105177,0.937040188496752,2.73736891416428
s3t16v2,Af,Af,Af,Ha,Af,Sa,3,1,3,3,-1,0.603354311628609,0.540597326696913,3.03250699018564,0.495230643136178,5.3151929809299,1.725271164464,2.7857726201723,1.46784319111199,1.83462352211518,1.26927744377916
s11t20v2,Sa,Sa,Sa,Sa,Sa,Sa,-4,-4,-4,-5,-4,0.913765961595888,0.793370552416495,0.747281024279074,1.50833226218096,3.57529337763913,1.7496782877332,2.62581283359473,1.49030366803302,1.87184390858044,1.29746398362139
s3t32v1,Sa,An,Sa,An,Sa,Sa,-4,-5,-3,4,-4,0.433489257278419,0.672017215332907,2.37728137128357,2.02485627415897,1.16780306566254,1.64955380597952,1.32047624656478,1.42643675745314,1.27052714870316,1.30369051499866
s10t25v2,Sa,Sa,Sa,Sa,Sa,Sa,-3,-4,-2,2,-4,0.515945834064405,1.18834035569427,0.788980212435175,1.6024291292191,1.01886384863175,1.16119580681722,3.06832078659566,1.16291421218005,3.37539826096986,1.93254476968921
s7t34v2,Sa,Sa,An,Sa,Ha,An,-2,3,-1,-3,-2,1.13413678721733,1.4727545265759,0.6848529605104,4.96515439500744,5.59447001905592,1.83594360541581,2.35811743707367,1.18859743226448,1.24076442646755,10.4098176857928
s7t31v2,Sa,Sa,Sa,Sa,Ha,Sa,-3,-4,-4,0,-1,2.52965984273365,0.896340959775337,2.26408606102489,1.33738807272237,2.3085803459586,4.9388670938569,1.62785918264313,3.18801192326998,0.169340148957789,1.26644618033579
s7t35v1,Sa,Sa,Sa,Sa,An,Ha,-3,-3,-1,-4,-3,1.16001257036005,2.05370212254342,0.878260559322374,1.63118847084893,0.64228186246599,1.4925479562657,1.0385150553521,2.22503046064114,6.67639875801715,1.28225981057464
s8t23v1,Sa,Sa,Sa,Sa,Sa,Sa,-3,-3,-3,0,-4,2.62287307015405,0.315279487684517,1.13952415420098,0.473936296816894,0.956635190263543,1.18383516211219,2.05201450772036,1.81843991666027,0.440172270626363,1.7738874718181
s3t17v2,Sa,Sa,Sa,Sa,Sa,Sa,-3,-3,-3,-2,-2,0.630775486624932,0.430719574914605,2.01172288709696,0.93213667285247,1.43486554553261,0.956960201516752,1.18043354057484,1.08999879281535,1.01526135547776,1.77413672856868
s7t32v2,Sa,Sa,Sa,Af,An,Sa,-1,-3,3,-4,-4,4.74849016388876,2.108242432003,1.39387111862031,0.551098855716019,1.65843223368749,1.09175043241159,1.69188102339934,1.63696829503006,1.17659058796735,1.79462856589884
s11t17v2,Sa,Sa,Ha,Sa,Ha,An,0,-3,-3,-3,3,1.36252537164915,1.28947554913461,1.06823232488614,3.14242726223716,0.63196800911791,0.753158107466804,2.0150125874659,1.88529350959858,1.18053470949126,2.07322870088848
s8t27v2,Sa,Sa,An,Sa,Sa,An,-2,-4,-3,-2,-3,0.554870941208152,1.22362631427953,0.678713424626469,1.51529678903544,1.4811618101514,1.38764556472049,1.9825080409739,1.41482481404713,2.73691487588724,0.976460387970576
s11t18v1,Sa,Sa,Sa,Sa,An,Sa,-2,-3,-3,3,-2,0.434072322579289,0.498646438096597,0.969157165178539,2.20055198151786,2.31970257316052,1.18404043237738,3.00227801120482,1.81936949771832,8.43223808613824,2.4249182462295
s10t22v1,Sa,An,Sa,An,An,An,-3,-2,-1,-4,-3,0.902297707375507,0.575741062312721,2.50065710921795,1.72990098642137,4.09893831286414,1.85953648996644,1.16868084041556,7.56125044780686,3.46732561680049,3.0934243625503
s10t21v2,Sa,Sa,Sa,Sa,Ha,Sa,-3,-4,-3,3,-2,6.34450997344682,0.659062217906116,1.59065736824948,0.864467374979412,7.97598582266702,3.1648310454659,1.54966489629209,1.26633083799631,6.19614306946492,3.32146447627002
s8t25v1,Sa,Sa,Ha,Sa,Sa,Sa,0,-3,-3,-3,-1,0.734720439004674,1.24484734978982,1.10526454694164,1.15400059528377,6.4873155194584,0.871265241928113,1.10892177883302,1.22846336145699,1.21720721984397,3.0085651461842
s11t19v2,Sa,Ha,Ha,Sa,An,Sa,-3,3,-1,-2,-3,0.824543285878432,0.704511009572925,1.59013344033453,0.759300087044367,1.33194938817243,1.28408818215097,2.3096081635007,2.66012571337526,1.27666619584836,1.651331837467
s8t16v1,Sa,An,Sa,Ha,Sa,An,-3,-4,0,-3,-3,0.442507464262202,6.84668608262715,0.861255872806724,1.26684401365927,1.90519299559207,3.10564674062587,1.65040665505749,0.883191933074074,1.99107123220319,1.11890280110826
