stimCode,stimCat,cat_t01,cat_t02,cat_t500,cat_t1000,cat_t2000,val_t01,val_t02,val_t500,val_t1000,val_t2000,rt_cat_t01,rt_cat_t02,rt_cat_t500,rt_cat_t1000,rt_cat_t2000,rt_val_t01,rt_val_t02,rt_val_t500,rt_val_t1000,rt_val_t2000
s8t08v2,An,An,An,An,An,An,-5,-5,-3,-5,-5,0.320281140691063,0.308007993771544,0.865600928208053,0.681082433691919,0.351055401685065,1.27954643312889,1.14276965905264,5.14958362107685,1.70016172285424,1.58459463963759
s5t07v5,An,An,An,An,An,An,-1,-2,-2,-1,-3,0.659376186712921,0.298434626383063,0.339129257565516,0.695141911926779,0.707758151755565,1.09328950345854,1.07810739785533,0.86505794213655,1.34358848791331,1.39032829886032
s5t08v5,An,An,An,An,An,An,-5,-4,-4,-3,-4,0.599890620807559,0.490461577259685,0.357133326784266,0.63278159888138,0.313793165804291,2.17801536880288,1.79309298257704,1.06744512590581,1.32831889850559,1.89740642287521
s3t20v2,An,An,An,An,An,An,-4,-5,-4,-3,-4,0.329662923435054,0.305856087675389,0.944368608856,0.413256386684281,0.669579046504729,1.12808948566854,1.30560878708837,1.80240047739765,1.41939393761672,1.34442129463324
s8t07v2,An,An,An,An,An,An,-2,-3,-4,-3,-5,0.763437927797026,0.303659706572477,1.23764657813697,0.58789165497365,0.441542002245255,2.48430398813739,0.948331771820733,1.27215869464389,1.09410862556101,1.44020921825157
s8t06v1,An,An,An,An,An,An,-3,-3,-3,-3,-4,0.574836041177014,0.3194517551255,0.319369647420718,0.289102694745547,0.74229177266136,1.26554462578192,0.878913128582132,1.07350447902417,2.03021025925997,2.27119197416735
s3t10v2,An,An,An,An,An,Af,-4,-4,-3,-3,3,0.43799915253119,0.386969214009334,0.494300601194569,0.454930934224397,1.66172163239892,2.80005307676631,2.12030391580441,1.43650117565526,1.32188419587966,10.9413355111425
s11t04v2,An,An,An,An,An,An,-2,-3,-2,-3,-4,0.626512089137688,0.502090569685738,0.348928421142148,1.08462225324069,1.63043419825003,1.0920911219578,1.03896645949133,1.06441935923734,1.31992680684602,1.94729418457519
s8t05v1,An,An,An,An,An,An,-3,-3,-4,-2,-3,0.911367176369794,0.494487787212018,0.385242508527227,2.40349876569638,0.487063393501664,2.0782510863387,1.83287612048915,1.27834756289181,1.36255781139958,1.91614213039192
s7t09v1,An,An,An,An,An,An,-4,-3,-1,-3,-2,0.490908282272604,0.361685417036274,1.84214207272103,1.39334966690175,0.561491584204628,1.16754272655251,0.85027269043978,1.40286829582038,1.89212025064354,2.22538369468054
s3t24v3,An,An,Sa,An,Sa,Sa,-4,-3,-2,-2,-2,1.79540128430135,0.454185611308968,0.619113598453247,0.414452813239672,0.751764949100554,2.85346462746317,1.41681487596116,1.99792971287229,3.84877520230019,3.4846759164906
s10t06v1,An,An,An,An,An,An,-4,-2,-3,-2,-3,0.677660790589675,0.274160069947945,0.559477501755785,0.536103197655239,0.485822003203178,1.60186707055838,0.898426904348923,1.62254990364563,2.99732661223121,0.796559589422377
s10t08v1,An,An,An,An,An,An,-3,-3,-3,-3,-3,0.425586715755344,0.759003623002473,0.525926729625682,0.437623803023616,0.377182268841152,0.95217519438266,1.02741566487936,1.05904765814653,1.07424442583988,1.09909129252678
s7t03v1,An,An,An,An,Sa,An,-2,-3,-2,-2,-3,0.512919989462845,0.969948091313542,0.375377854281306,0.716195695894566,0.632379368875217,1.16398032738492,1.11411016019311,0.854128331410156,1.63812690820994,1.08506162720854
s7t32v1,An,An,An,An,An,Ha,-2,-2,-2,-3,1,1.0824248946651,0.261263295461155,0.330544115052444,0.730076296629723,0.553173291732096,1.01651146844254,3.22669497427536,1.73997565115564,1.27885975857402,3.54060592553711
s5t05v2,An,Sa,Sa,Sa,An,Sa,-1,-2,-2,-2,-1,0.324948083982497,0.390952903900263,0.505506347951926,0.824341317818887,0.327677676430152,0.772261573643036,1.43342262546228,1.25539210583292,1.807162724275,0.619837416969805
s10t04v2,An,Sa,Sa,Sa,Sa,Sa,-3,-2,-2,-2,-3,1.12217968586961,0.80417605651356,0.510803272383025,0.64103733310265,0.567240101012026,1.21763233636008,1.68380225141281,1.57059576470864,1.28681149879307,1.02663319800224
s5t15v2,Ha,Ha,Ha,Ha,Ha,Ha,4,5,5,5,5,2.04021469209855,0.638213414541763,0.609358421147035,0.498390346870841,0.852161656386098,1.74622756639117,1.40400460780619,1.43422464179292,1.33653504508348,1.97616579500541
s10t12v2,Ha,Ha,Ha,Ha,Ha,Ha,4,5,4,5,4,0.826092460117893,0.56201795324064,0.693919093609137,0.760547052357835,1.2272936762894,2.35247713569227,1.52767982687004,1.35721592322539,1.5185663603756,2.88361721583525
s5t11v2,Ha,Ha,Ha,Af,Af,Ha,4,4,4,5,4,1.05032322577713,0.574595582898725,0.490129236549854,1.0461196045341,0.483122712408478,1.62635422730052,0.986756222713239,1.66925745799433,1.5498860511228,1.19952465503767
s7t15v2,Ha,Ha,Ha,Ha,Ha,Ha,5,4,4,4,4,0.660504190180994,0.428993208031111,0.406596376606537,0.722996950773987,0.57001856709348,1.77693340429785,1.51476741282043,1.13354769309117,1.89099371338448,1.3542942573969
s7t21v1,Ha,Ha,Ha,Ha,Ha,Ha,4,5,4,5,4,0.480980581039083,0.758116566549028,1.64758444508632,0.439815296763148,0.793110577085206,1.88206450048947,1.35568520101481,1.56391229528668,1.3542209469462,1.43164900129173
s7t14v1,Ha,Ha,Ha,Ha,Ha,Ha,4,5,4,5,2,1.35647597640967,1.17906370824787,1.24017187879534,0.595008633527411,0.485925615306831,1.17120189551501,1.88340266058288,1.19663182465313,2.10910207893776,3.46525793304605
s7t20v2,Ha,Ha,Ha,Ha,Ha,Ha,4,4,5,4,5,1.39853564818412,5.29979282466633,0.817270769217235,0.94846861799537,0.368443174381614,1.69958892386612,2.72684232828127,1.58570113870679,1.50023874770111,1.68538820082958
s3t26v1,Ha,Ha,Ha,Ha,Ha,Ha,3,2,3,4,4,0.880963866256324,0.479131202736142,0.453653866173238,0.888416606674281,0.692366378263354,1.37794176511038,1.39530558972637,1.00092077926077,1.40445473397348,1.80676978025926
s8t12v1,Ha,Sa,An,Sa,An,Ha,-2,-1,-2,-1,5,1.21250646964727,0.414252920077435,0.886337522292486,0.458825674101813,1.32828957432531,2.10635880187264,2.95898329157081,4.24609389700273,2.66884838567944,1.35821636650924
s5t12v2,Ha,Ha,Ha,Ha,Ha,Ha,2,3,3,3,5,0.597418103673684,0.376009790366323,0.390477363443402,0.496663152652397,0.732962773441872,0.972491475216425,1.49812056441227,1.12055561501848,1.2089132800904,2.34741138354904
s11t07v1,Ha,Ha,Sa,Ha,Ha,Ha,0,-1,1,3,3,4.22612364149626,0.341829037096554,0.340283652795841,0.762093902867563,0.44723773552815,2.15132107875839,1.08217710534174,0.937864505670075,1.64726334531226,1.05762201424862
s10t10v2,Ha,Ha,Ha,Ha,Ha,Ha,2,3,4,2,3,0.502349111208533,0.461531318468906,0.553276415099411,0.486220812054975,0.362177085792288,1.10510910305641,1.32009346593728,1.26151743835691,1.61991805846557,0.95166055501876
s5t17v2,Ha,Af,Af,Ha,Ha,An,2,3,2,1,-3,0.598330574416705,0.28271051218102,6.17262167457686,0.611318742598699,0.758606769096028,2.18062717579308,0.936165658159233,1.24859622705322,1.50527859681842,1.54888658531162
s3t11v1,Ha,Sa,An,An,Sa,Ha,-2,-2,-2,-3,2,1.03642160937944,0.552119576187397,0.470003074151566,0.403751931119455,0.455910361845723,1.32644899327645,1.21869827031323,4.89624616280883,1.10328465030671,0.912933087596703
s11t09v1,Ha,Ha,Ha,An,Ha,Ha,4,4,-2,2,4,0.475083488384937,0.707999587506531,0.800478277380354,0.909401478818411,0.583675326585839,1.18280156376079,1.12594686556281,2.82615599584183,1.09306566221574,1.55053411550697
s8t13v1,Ha,Ha,Ha,Ha,Ha,Ha,4,4,4,4,4,0.508778437734746,0.559161778081446,0.563486605936289,1.1092286616493,1.14180000615808,1.2821235398391,1.13488634192092,1.25774390509131,1.11959329316898,1.19729894975448
s8t15v2,Ha,Ha,Ha,Ha,Ha,Ha,4,4,4,5,3,1.05130754076183,0.9727304672857,2.62580830881099,0.977686742489222,1.19609421468135,2.29263234857849,1.06203579211698,1.22497755478368,1.26728306093614,1.11044170524018
s7t27v1,Af,Af,Af,Af,Af,Af,5,5,4,4,4,0.669330768445032,0.33584641558326,0.512576896553578,0.371340892129537,0.608144400083476,1.54303738881859,2.26471084158931,2.17271746689911,1.18532588694649,2.73346519439732
s3t03v2,Af,Af,Af,Af,Af,Af,3,3,2,2,3,0.547469249931455,0.647393837914503,0.622973638050665,0.444992969527778,0.801950839966707,1.59397006880919,1.36724234919918,1.79747743626512,0.960029187334105,1.50645254150227
s7t30v2,Af,Af,Af,Af,Af,Af,4,3,4,3,4,0.611632511327686,0.384845165884444,0.370844336010142,0.686214653977116,0.398617755888906,1.92205828376325,0.886758813015831,1.28649870753675,1.36490716697628,1.4672089685073
s7t24v1,Af,Af,Af,Af,Af,Af,3,2,2,3,3,0.980151439841689,0.431660242227504,0.670545766981266,0.339357008699018,0.35730731692059,1.51681130818589,1.00309418975579,1.07484703774462,2.07387054254132,0.954076378737428
s7t25v2,Af,Af,Af,Af,Af,Af,3,4,3,3,3,0.792266529429503,0.552050664363741,0.295060879441941,0.547720949145518,0.335105491294873,1.85116561172928,1.29110895741298,0.838997054386091,1.52392291063994,1.19878959558534
s8t20v1,Af,Af,Af,Af,Sa,Af,4,3,3,-4,4,0.424901996145825,0.329123358517917,0.453718868106191,1.34371262694315,0.537258570358239,1.6218739812902,0.979259984761201,1.17171555740624,4.25860261483716,2.06095568481003
s10t19v1,Af,Af,Af,Af,Af,Sa,3,3,2,-2,-2,0.56738232328638,0.469411214446264,0.466380071678071,6.65713239818522,0.472034751108576,1.10250804826565,1.31918832623933,2.75389632827051,2.14194467211412,1.26225738517262
s3t05v1,Af,Sa,Sa,Sa,Sa,Af,-2,-2,-3,-2,3,0.415922443407998,0.303931932712736,0.72202534293407,0.416840778987074,0.545929241730459,1.12619367741349,1.22192148646225,1.55567171189188,1.02044530722699,1.93614122134233
s10t17v3,Af,Ha,Ha,Af,Ha,Af,4,3,3,2,2,1.05325564380505,0.531500767560419,2.38417413089239,0.685504031341684,0.392777845386305,4.3396424307204,0.985497726642924,1.91528390938242,2.60233967859721,2.18829984756314
s5t19v2,Af,Ha,Af,Af,Af,Af,1,3,3,2,3,0.830337623949644,0.344059629743125,0.373234256702897,1.20351763091902,0.385908167419565,3.14820782828542,0.973874599052927,3.05937560022931,1.53962747538846,1.19024746187001
s8t17v2,Af,Af,Af,Af,Af,Af,4,4,2,4,3,0.575687419877787,0.290181335843483,1.20026313564437,0.493716561270675,0.350289063107102,1.43085773716053,1.22503424819888,3.26316203613423,1.63400734961705,1.31974353071928
s10t20v2,Af,Af,Af,Af,Af,Af,2,3,3,2,1,0.529305852666521,0.378602047903003,0.462986286547092,2.07921682934256,0.503638397668141,0.889350581816174,0.917438747896601,0.943704904909014,2.28123892706734,1.72710722337645
s7t26v1,Af,Af,Af,Ha,Af,Sa,2,1,1,2,-1,0.60390754476947,0.490131680231544,2.88498176769091,0.524333449163845,0.41386339721606,1.38614471580715,0.885233466904975,2.37474298577826,2.57778458750409,0.996619899486485
s3t22v2,Af,Af,Sa,Af,Sa,Af,2,-1,1,-2,2,0.429166709431096,0.373268468246556,0.608503132555558,0.3537268345085,0.348434797440781,1.0000141733538,2.46270819557078,2.38788363969771,2.77865766609827,0.981443169982987
s3t28v1,Af,Af,Sa,Af,Sa,Af,3,-1,2,-2,4,0.600931140471132,0.497700251161604,0.361765569795703,0.376114379942652,0.480565155151794,1.5132694359445,2.40411115232788,1.35776330792393,2.8218223707329,1.2455479785132
s3t19v2,Af,Af,Af,Sa,Af,Sa,2,3,-1,2,-1,0.363804089061445,0.32987259132405,0.645670064850425,0.343809885474414,0.363752283009619,0.968095291856235,2.00315137190734,3.25124029064173,1.17957981382078,2.14005619490414
s3t16v2,Af,Af,Af,Af,Af,Af,3,3,2,1,2,0.465625951508558,0.428086113387808,0.482316786187138,0.656064509286724,1.27851031209236,2.07825059760236,1.22687531798408,1.0083217136269,1.20578194637292,1.48694609678055
s11t20v2,Sa,Sa,Sa,Sa,Sa,Sa,-5,-3,-3,-4,-3,0.435946948647984,0.806431574713368,1.09439453631873,0.604426582760412,0.350321808441747,1.43383560766788,1.81568530853681,1.40685491812933,2.1584116655499,1.43677046937749
s3t32v1,Sa,Sa,Sa,Sa,Sa,Sa,-2,-2,-4,-4,-3,1.94396686758618,0.491103288071461,1.45666497075157,0.370029123798381,1.22864747594562,1.69030830954409,0.876758778804287,1.41057860028845,1.13309561197854,3.51861816642743
s10t25v2,Sa,Sa,Sa,Sa,Sa,Sa,-2,-2,-2,-3,-4,0.301780515352919,0.557433606390325,0.461412066802438,0.37094452695943,0.812088209089225,0.652433687031821,2.74713075114377,0.795648096152032,1.17183480907271,1.53674197604899
s7t34v2,Sa,Sa,Sa,Sa,Sa,Sa,-3,-3,-3,-3,-2,1.17489234360315,0.329269979419313,0.87233278252748,0.418259091839912,0.32009981950967,1.12934798173886,1.01509755421674,1.53680453430025,1.01675779155688,0.63169171684767
s7t31v2,Sa,Sa,Sa,Sa,Sa,Sa,-3,-4,-3,-3,-4,0.458526078726627,0.642420456939152,0.292175380102468,0.754122124458663,0.735289158410688,1.17119114331558,1.35470235223912,1.49208076074743,1.07570721369947,1.27677627556519
s7t35v1,Sa,Sa,Sa,Sa,Sa,Sa,-2,-2,-2,-1,-2,0.44777925539064,0.426160492216141,0.369356133860973,0.326049695688319,0.782968320599308,1.17810187513471,1.50348249077632,2.098624549324,0.868034346434888,1.45918733899192
s8t23v1,Sa,Sa,Sa,Sa,Sa,Sa,-1,-2,-1,-1,-1,1.24190542658618,0.445074099759884,1.19008617887848,0.36305290130996,0.446700125556365,0.679109405095467,0.776963705950805,0.90310997593951,0.532092138529383,1.26265766023343
s3t17v2,Sa,Sa,Sa,Sa,Sa,Sa,-1,-2,-3,-3,-1,0.305295018359381,0.361996253347233,0.57117149611479,0.969214009333887,0.300160354392493,0.517004359039398,0.716099903572321,1.01550516032262,1.29538833278839,0.627129363132565
s7t32v2,Sa,Sa,Sa,An,Sa,Sa,-2,-2,-2,-1,-2,0.302921714702118,0.355989683753378,0.791662451315752,0.640674202003526,0.321953107703316,0.742312788323893,0.67260823432757,1.53875996838853,2.06044495533683,0.777641583251592
s11t17v2,Sa,Sa,Sa,Sa,Sa,Sa,-2,-2,-1,-1,-1,0.506808341556322,0.367358668447622,1.07404111152328,0.773082161954515,0.341103263634644,1.01787211040749,0.659308252361941,0.91105243016813,1.50298397971158,1.034100111774
s8t27v2,Sa,Ha,Sa,Sa,Sa,Ha,0,-3,-4,-1,0,5.93740998087575,1.30612782507931,0.316189928805778,0.341802645334303,3.08525370058937,0.980400206637724,1.58390747634638,1.44628812082344,0.773099267726345,4.11994469459599
s11t18v1,Sa,Sa,Sa,Sa,Sa,Sa,-3,-2,-1,-1,-2,0.68170117389581,1.00149846561227,0.428014269146124,0.402248578143809,0.954410185656273,1.27254284140555,0.882961331669675,1.12550358170425,1.62649400589318,1.58373641862809
s10t22v1,Sa,Sa,Sa,Sa,Sa,Ha,-1,-1,-1,-1,2,0.425207456357067,3.30603838632946,0.317283720730192,0.386786426618927,0.360759750412127,3.19173810770087,3.82430515132988,1.71045695381393,0.674751343169641,2.64985315916725
s10t21v2,Sa,Sa,Sa,Sa,Sa,Sa,-2,-2,-2,-2,-1,0.449220050115024,0.451695499666926,0.519020396433593,0.387634872901672,1.58542598014851,0.876972356583987,1.0839932495737,4.26912217577598,0.863791137548489,2.20123669842964
s8t25v1,Sa,Sa,Sa,Ha,Sa,Sa,-1,-1,0,-2,-1,1.14880848524481,0.575387824502601,3.86402182110002,1.03325557538196,0.343594352749362,0.837613930549589,0.735082911676058,1.34812249492081,0.812241672299353,0.895348354155945
s11t19v2,Sa,Sa,Sa,Sa,Sa,Sa,-2,-1,-4,-4,-2,0.574298431205229,0.492790894646529,1.01191832433814,0.573569236588953,0.336951448443448,0.844715758276872,1.97577382846234,2.25068215374374,1.4320487876162,0.704069658612781
s8t16v1,Sa,Af,Af,Sa,Sa,Ha,2,2,-2,-3,1,1.62374779641004,0.488500767071682,0.340988410595217,1.54443664095425,1.61605801886816,4.92900518207139,1.56984311074814,1.6628921559284,1.38261115208351,5.31959006750915
