stimCode,stimCat,cat_t01,cat_t02,cat_t500,cat_t1000,cat_t2000,val_t01,val_t02,val_t500,val_t1000,val_t2000,rt_cat_t01,rt_cat_t02,rt_cat_t500,rt_cat_t1000,rt_cat_t2000,rt_val_t01,rt_val_t02,rt_val_t500,rt_val_t1000,rt_val_t2000
s8t08v2,An,An,An,An,An,An,-3,-4,-5,-5,-5,1.71548492189825,1.47028585420258,0.850587919631027,2.43536842784343,0.878508176234646,6.97766252401505,2.61762620148545,4.44919268877134,2.76305120978167,1.78853856067578
s5t07v5,An,An,An,An,Ha,An,-3,-3,-3,2,-4,1.26491352139398,1.90989940438285,0.95402599954157,0.640814070386142,0.691798058074016,3.17852288705462,1.90685802788018,1.47956637781002,3.98510834934336,2.32624249002865
s5t08v5,An,An,An,An,Ha,An,-5,-4,-4,2,-2,1.95613780861565,1.93155656603521,1.5088076758224,0.708695463056048,1.06184360296816,1.92750302647019,2.31194220456055,2.34981010335206,2.93130829040234,3.38188751061158
s3t20v2,An,An,An,An,An,An,-3,-4,-4,-2,-5,4.55890070587499,1.20568316608125,1.9574490753932,2.45618692613751,0.630185625134096,3.59939553680564,2.37338504764888,2.61648599075418,2.24502165813912,2.12730821807007
s8t07v2,An,An,Ha,An,An,An,-3,1,-4,-4,-2,1.27574674516999,17.3772792607251,2.19601752200392,1.15743949625461,0.829996192781142,1.61368409271629,10.4963679914061,4.0884144717325,2.62402858493153,2.60326971188786
s8t06v1,An,An,An,An,An,An,-2,-2,-4,-4,-3,1.34419799883975,1.49881458159935,1.74860528230846,1.32055267719818,1.55155067193259,2.50394626298743,27.1918471755959,2.37255127160621,1.75304296488024,1.80357731953221
s3t10v2,An,An,An,Sa,Ha,Ha,-4,-3,-2,1,2,1.38331607296371,1.06312212473114,2.62961771906048,2.2363324997202,1.64754341524637,1.90625639932887,1.28679207844337,13.5389487286382,4.51398383178251,3.38923167977526
s11t04v2,An,An,An,An,An,An,-4,-3,-3,-4,-4,1.89916588184524,1.03545698600224,1.30225554502611,0.676660575442314,2.44603988147282,2.26672818167912,1.43678232824873,2.48885716478024,2.02254078831423,3.49072118695302
s8t05v1,An,An,An,An,An,An,-4,-2,-4,-4,-4,1.06282741959999,0.939536574959448,1.2147168802505,0.666697782576036,2.53710865431186,1.83530674992046,1.28854662474653,1.85118514959829,3.94507732466389,2.27892594397279
s7t09v1,An,An,An,An,An,An,-1,-1,-2,-2,-2,2.52540597708924,1.19793823703774,1.18530550365498,41.3555214203712,1.3839914999807,5.81988580298351,3.72248453531159,2.81012729990963,5.27662548451625,3.57849639780403
s3t24v3,An,An,An,An,An,An,-3,-3,-3,-3,-2,2.30147992803917,1.17288341357491,4.10002282376389,2.34879842902127,1.95486319670517,6.2237090522371,1.85573133057656,3.26559432445813,2.73766111646815,2.43318526396147
s10t06v1,An,An,An,An,An,An,-2,-2,-2,-2,-3,1.1182285631341,1.63322993402613,1.48916262200573,0.711258860092282,1.13453900151165,3.00507840964795,2.83263338828305,4.46431550945622,2.33080088929595,1.60920437923028
s10t08v1,An,An,An,An,Ha,An,-3,-4,-3,2,-4,0.774912724761536,1.37065694807667,0.778527383384984,0.810599903328897,1.79261067204011,1.74846012903491,1.43900214699775,3.08209077406771,2.59429220184809,2.05504045964226
s7t03v1,An,An,An,An,Sa,An,-3,-3,-4,-2,-3,3.34423807482773,3.1891049028084,1.63188054618684,1.58303329288265,1.21965746759832,2.64296009066948,1.95314139541658,1.78910988787032,3.41918163855075,2.3258158273761
s7t32v1,An,An,An,An,An,An,-2,-2,-3,-2,-2,1.7941692369874,1.4565358804719,2.65589681508304,1.07951564747402,1.85265965271713,1.79614029137198,1.26724574840197,2.40846033430216,2.81115314745569,1.74672659818886
s5t05v2,An,An,An,An,An,Ha,-3,-2,-2,-3,1,2.35930322518844,1.18034585577629,2.0847045104547,1.55468246377399,1.47787732153601,1.84461122137438,1.53830213678326,1.38541712994346,2.07184744928555,3.14503500051072
s10t04v2,An,An,An,An,An,An,-2,-3,-2,-3,-2,1.45883096388127,2.42356213952993,1.73169517030584,1.91485856352997,0.487921243841371,2.99701433889526,2.46961824689057,1.77396116441272,2.12406548416436,1.383499347299
s5t15v2,Ha,Ha,Ha,Ha,Ha,Ha,5,5,5,5,5,1.48304077047553,1.27479616228429,0.706906705543633,1.58909209804151,1.54975116232583,2.32641354607492,1.92777524994954,1.69696883798695,2.35281482498767,2.68273746366892
s10t12v2,Ha,Ha,Ha,Ha,Ha,Ha,4,5,4,3,5,1.88311886977894,1.06103475223509,0.614323353597773,1.12901095882779,0.597072595697305,4.04623987042749,2.48778293280967,1.71701269675722,2.53433852382542,1.97811264578252
s5t11v2,Ha,Ha,Ha,Ha,Ha,Ha,3,4,4,4,4,2.2185377835926,0.72778482908813,1.27670905761314,0.69393528118926,0.858277622008169,3.57380115369972,2.24458179973442,1.75599685843353,2.68619426199824,2.01064261846731
s7t15v2,Ha,Ha,Ha,An,An,An,5,5,-4,-3,-3,0.830953129177128,1.21728809699171,1.22903085020231,1.75822645181376,8.46895112831012,2.13941507629344,1.76584479938303,4.30844288658544,5.51138377987921,6.86036939308826
s7t21v1,Ha,Ha,Ha,Ha,Ha,Ha,4,5,5,5,4,1.38842087411595,0.890615523189579,0.80465399516058,2.68372421269011,1.85242506156796,2.38246177019549,1.90695772911858,1.78440193674543,2.3301885086503,2.30999509802245
s7t14v1,Ha,Ha,Ha,Ha,Ha,Ha,4,5,4,5,3,2.16933473371217,1.23757045676363,0.759629600124724,0.682830811397025,0.720512992195446,3.12905836578918,2.70103166345163,2.59093119490468,1.36931440247924,1.29432440925794
s7t20v2,Ha,Ha,Ha,Ha,Ha,Ha,4,5,5,5,5,1.75899571529041,1.26973583570409,0.680955548398353,1.2751798165595,2.17811430746982,2.71641057947435,1.5157193175548,1.62432084640487,2.18323083817951,2.06140765441596
s3t26v1,Ha,Ha,Ha,Ha,Ha,Ha,4,3,4,4,5,1.63090454925999,4.92081571252419,0.79184971699999,0.977889295459244,0.967107877228677,3.35795921339633,2.90465238234643,2.27205877681242,1.57060875914478,1.64772131353449
s8t12v1,Ha,Ha,An,An,An,Ha,2,-2,-2,-3,5,21.4287529574369,1.00543274002951,3.76870192408728,1.27426051249369,0.867351412165408,6.0232176815259,3.08669413663859,3.83419977293532,3.96554344750266,2.08397776662384
s5t12v2,Ha,Ha,Ha,Ha,Ha,Ha,2,3,4,4,3,2.11714797765324,1.32417662172128,0.688805065995866,1.35260418168498,0.964411056476353,2.9443246780603,4.77446162553095,1.83874595391359,1.79515207615611,1.09529092479252
s11t07v1,Ha,Ha,Ha,Ha,Ha,Ha,3,2,4,3,4,1.21718839575331,1.05216280821245,0.614116131416007,1.01856691199362,1.37867556679421,1.96913562447431,1.56741294346891,1.55181703063321,1.86695798325899,2.44307865694612
s10t10v2,Ha,Ha,Ha,Ha,Ha,Ha,3,4,3,3,4,0.622351258214967,1.37045656813675,0.921191058362857,1.83466504538117,1.06404924850192,1.5572810494826,2.25185070423774,1.61583548904679,2.60132309408131,1.50302695892162
s5t17v2,Ha,Ha,Ha,Ha,Ha,Ha,3,3,3,3,2,0.604082472473417,1.54584179857124,1.77244658530589,0.89688790404049,2.01517755861969,1.75356639638182,2.36066825243767,3.36781008673519,1.68326724868079,2.03171330224675
s3t11v1,Ha,Ha,Ha,Ha,Ha,Ha,4,2,3,3,3,1.54290012330697,0.845054500899999,0.645159871424501,1.53290556288924,0.685595077104735,2.10290731743555,1.57440473717727,1.46616047109813,2.78489555562181,2.58043617336872
s11t09v1,Ha,Ha,Ha,Ha,Ha,Ha,4,3,4,2,4,1.90362506860569,0.681781504736053,1.596398634875,2.31740133609434,1.87808493470302,2.74477802545607,1.90584488735471,2.01433254175112,2.74613376680565,2.08373242338033
s8t13v1,Ha,Ha,An,Ha,Ha,Ha,3,-3,3,-4,5,1.89883843169952,1.26543304304308,0.68933485100774,9.68585508229506,0.602965720857059,2.37809739735782,1.85596592172573,1.51581071035666,2.65646814227758,1.64535731897505
s8t15v2,Ha,Ha,Ha,Ha,Ha,Ha,3,4,-2,5,3,1.19470918761574,0.58783654666189,2.31970375047712,2.01429002210533,2.18714606671284,3.12557713088182,1.93796823538094,2.86536911695493,2.40911132474111,3.63568629885055
s7t27v1,Af,Af,Ha,Ha,Ha,Af,4,4,4,3,4,1.10100761785884,1.406299652072,1.21867707208742,0.967002311211551,0.904873289011897,2.19038000345045,3.21116429053527,1.83650902955995,3.07965737962664,2.49941474395598
s3t03v2,Af,Af,Af,Af,Af,Af,4,2,3,3,3,1.0227206415286,1.79081458355428,0.692479349869729,0.844013991407122,1.55102088692071,1.35314129767027,1.4044048398109,1.28569096623696,1.79467605161592,1.61032797308849
s7t30v2,Af,Ha,Af,Af,Af,Af,4,4,3,5,4,0.762644585123109,0.968423053858707,1.28676519820753,1.10090547296264,1.09130874003537,2.23389470669508,1.6890064233989,1.85688913564402,2.97502679470782,1.82923865886195
s7t24v1,Af,Ha,Ha,Ha,Af,Ha,2,2,4,2,3,1.02060785499139,1.78788610404215,0.754557055255502,0.481235884821611,2.21887940695358,2.54272075882417,3.35518761671521,1.43896842452005,5.21215250575115,2.72361155029072
s7t25v2,Af,Af,Af,Af,Af,Af,5,3,5,2,3,1.98057536411723,1.43940144068289,0.829198582873966,0.928272778678401,1.1847234243661,2.71421666349806,3.74885306920977,2.53022584774155,3.75185485845601,2.92929716002977
s8t20v1,Af,Af,Af,Af,Af,Sa,5,3,4,5,-3,1.18420732383793,1.39307555350071,0.906308693605876,0.621450525948469,1.23750545546605,2.74203721886328,2.83444902603131,1.53121992773615,2.00133863574495,2.31374562401979
s10t19v1,Af,Af,Af,Ha,Sa,An,2,2,2,-2,-1,0.671674536059348,0.775956655375339,2.35244094534368,1.56090548273727,1.70729231474508,2.94799407461856,1.65283833297574,4.93636030854601,2.80914690439873,3.24481492468891
s3t05v1,Af,Af,Af,Af,Sa,Af,5,5,3,-2,2,1.28295455822821,0.856840751219507,0.855287073587822,1.6233736846401,0.741709279986003,1.90995218739141,3.61176728753495,2.36505657312182,2.90856956580599,2.27036385575968
s10t17v3,Af,Ha,Ha,Ha,Ha,Ha,2,3,2,3,3,0.562395136534492,0.865629610876819,1.88770708167144,0.677947405641819,2.02583777142318,1.63409205649932,1.9844290124739,3.01559395790946,2.01680796710641,2.32631628849433
s5t19v2,Af,Ha,Af,Ha,Ha,Af,2,1,1,1,2,1.29682622611752,0.490965064001842,1.56267126986633,0.798957828819816,0.991060122290411,2.20810140984393,1.58756041333006,3.05385577433895,4.03406361232249,1.36786531340156
s8t17v2,Af,Af,Af,Af,Af,Af,4,3,5,3,4,1.38640485642777,0.622382537034856,1.29320472525222,0.549066938140758,1.22947217480169,2.79015088609476,3.41907069648646,3.3714364749161,2.80195766313982,2.17739782700173
s10t20v2,Af,Ha,Sa,Ha,Ha,Ha,2,2,2,2,2,1.56798573685813,7.44481658637622,2.14502375968483,1.60300090952943,0.78761779041529,4.2660058364323,5.27028663617308,2.13163153745663,2.22245838817309,0.986276417773603
s7t26v1,Af,Ha,Ha,Af,Ha,Ha,2,1,2,2,2,3.17842807313184,1.37620698368076,0.663030340944024,0.848292347490095,1.91773865861758,2.89833797058129,3.48268644009397,1.96369946332387,1.83112076410247,1.99149900323198
s3t22v2,Af,Sa,Af,Ha,Sa,Ha,-1,3,2,-3,2,1.6589220634442,2.58309145193838,2.12972792802744,0.860099613266716,1.68460344076793,1.78511646228727,2.75675781347364,5.51475114033291,1.62113382789709,2.75408103071531
s3t28v1,Af,Ha,Ha,Af,Sa,Ha,1,2,2,-1,3,3.02210972707763,2.21936422866186,1.5552317980483,1.76128395645793,1.26887224703621,4.14784911683763,2.25055654306483,2.52282058713277,2.07709447132197,2.51228891072976
s3t19v2,Af,Af,Af,Sa,Af,Sa,2,3,-1,4,-1,0.566816690964771,0.517210437546704,1.63708113872499,0.698916433256619,1.04450194099739,2.62379203885611,2.04325958536992,3.36000308878346,1.86755032591064,4.25620579117576
s3t16v2,Af,Ha,Af,Af,Sa,Sa,2,2,2,-2,-2,3.97924699173506,0.76741069530373,0.56463010596189,0.960167889065755,0.93326028425605,2.03810248994068,2.99254440004047,1.81088239017102,1.76081330796491,2.42934090150446
s11t20v2,Sa,Sa,Sa,Sa,Sa,Sa,-3,-5,-4,-4,-5,1.8846305164964,1.32880588706489,1.16513506341048,0.91493382819033,0.979251390319107,2.2152451990677,2.137280296836,1.68089347949014,3.4045045410493,2.16177063534614
s3t32v1,Sa,Sa,Sa,Sa,Sa,Sa,-3,-5,-3,-4,-4,1.59886086447816,0.632027165655074,1.10956628495103,0.974618703854577,1.64330318022514,3.52124784897022,3.09838312937751,2.40040066213352,1.81163308184836,1.58794651126306
s10t25v2,Sa,Sa,Sa,Sa,Sa,Sa,-3,-2,-3,-3,-3,1.34541982774167,0.669739647810263,0.909890607214753,0.919122257666121,1.7913238418406,2.11378941436763,2.97961891645281,1.43438754360096,1.63922324915584,3.16754255507883
s7t34v2,Sa,Sa,Sa,Sa,Ha,Sa,-3,-2,-3,1,-2,0.585672443310804,32.6663884154981,0.624734313305277,3.50211791821859,1.69569031622398,2.09334675064378,3.35365593200376,1.43132710656743,1.74900506472516,1.91309277640091
s7t31v2,Sa,Sa,Sa,Sa,Sa,Sa,-2,-3,-2,-4,-3,1.11058089167118,0.573117906977767,1.65806580574973,1.85293138746492,2.55152819028079,2.36261096039173,1.32105216085329,2.59060814334301,3.66316865197572,2.02949983700802
s7t35v1,Sa,Sa,Sa,Sa,Sa,Sa,-4,-4,-2,-3,-3,1.57389254650159,1.46043693578996,0.639880593105073,1.84977369285079,2.06060808958254,1.82136959200201,1.89548280080328,1.9641500738229,3.5747756844319,1.55673757998703
s8t23v1,Sa,Sa,Sa,Sa,Sa,Sa,-3,-2,-2,-2,-2,1.29500032500649,1.15709885035675,0.842517495368047,1.34585137770983,21.023548064061,2.14214806318126,2.42720025726829,2.86470199837448,2.03905209536326,2.83090132363169
s3t17v2,Sa,Sa,Sa,Sa,Sa,Sa,-3,-3,-3,-3,-3,1.0437057972849,0.703614609750292,1.10998317297236,1.69601532271189,4.41060293346457,2.49032091580475,2.21705839315815,2.46773711911317,2.05222487712067,3.35657268195843
s7t32v2,Sa,Sa,Sa,Sa,Sa,Sa,-3,-2,-3,-1,-3,1.5267543874654,1.80867967702664,1.03875690150055,1.94228764491502,1.33762602554209,2.10045437373205,1.53741362280578,1.72065081449558,2.82800070181852,3.96312031642436
s11t17v2,Sa,Ha,Sa,Sa,Sa,Sa,1,-2,-2,-2,-2,1.72784103321762,0.573542614704076,1.38924145440648,1.57783465527075,0.791383467091016,1.95655762902635,1.35647884549876,1.63477774687908,2.00969350177629,2.23511800179169
s8t27v2,Sa,Sa,Sa,Sa,Sa,Sa,-2,-3,-3,-3,-3,1.70069639360094,2.01370061184304,0.901215622011101,1.00727819040297,0.628209194702345,1.83545923416742,2.13994388384219,2.91713263148223,1.14728805300587,1.145258350834
s11t18v1,Sa,Sa,Sa,Sa,Sa,Sa,-2,-2,-2,-1,-2,0.848934540760945,0.597993854689355,1.10478258043422,1.41258278501725,1.62025313362458,2.21404927293849,1.26937661800692,2.09298411182569,4.6604879593649,1.46256389554243
s10t22v1,Sa,Ha,Ha,Sa,Sa,Ha,1,1,-3,-2,1,4.17800238794241,1.32031173253872,14.0783813015215,0.831762957373322,1.11596964586022,3.1547412093076,3.23934699598703,2.56088935459576,1.63273778134443,2.93238349983603
s10t21v2,Sa,Sa,Sa,Sa,Sa,Sa,-2,-2,-2,-2,-2,1.54574307479597,10.38217195238,0.668883390115795,1.40946467765954,1.5873830037735,2.37865308514241,6.9056630792141,3.39207756365362,2.27272394046663,3.37152004801299
s8t25v1,Sa,Ha,Sa,Ha,Sa,Sa,1,-2,2,-2,-2,1.31439612572717,1.21003727555614,8.37337380682299,1.31280774815467,1.0652740097932,4.65499901520591,2.27300887096656,8.21636586053654,2.71506168036663,1.19928371502454
s11t19v2,Sa,Sa,Ha,Sa,Sa,Sa,-2,2,-3,-3,-3,1.78266645097314,1.05551355179308,0.84317435058572,1.17496834241315,1.01214009196951,1.6088651995271,2.36377267531168,2.31040367760725,2.31913144581946,1.41003404992784
s8t16v1,Sa,Sa,Sa,Sa,Ha,Sa,-3,-2,-2,2,-2,1.38976048732401,1.33354413954655,0.784859389486309,1.42482746554076,1.4462906007635,5.27129097953046,3.66281920890977,1.85773512997571,1.74065361981474,2.66125135806282
